%YAML 1.1
%TAG !u! tag:unity3d.com,2011:
--- !u!74 &7400000
AnimationClip:
  m_ObjectHideFlags: 0
  m_CorrespondingSourceObject: {fileID: 0}
  m_PrefabInstance: {fileID: 0}
  m_PrefabAsset: {fileID: 0}
  m_Name: pixel
  serializedVersion: 6
  m_Legacy: 0
  m_Compressed: 0
  m_UseHighQualityCurve: 1
  m_RotationCurves: []
  m_CompressedRotationCurves: []
  m_EulerCurves: []
  m_PositionCurves: []
  m_ScaleCurves: []
  m_FloatCurves:
  - curve:
      serializedVersion: 2
      m_Curve:
      - serializedVersion: 3
        time: 0
        value: 1
        inSlope: 0
        outSlope: 0
        tangentMode: 136
        weightedMode: 0
        inWeight: 0.33333334
        outWeight: 0.33333334
      - serializedVersion: 3
        time: 0.4
        value: 1
        inSlope: 0
        outSlope: 0
        tangentMode: 136
        weightedMode: 0
        inWeight: 0.33333334
        outWeight: 0.33333334
      - serializedVersion: 3
        time: 0.41666666
        value: 0
        inSlope: 0
        outSlope: 0
        tangentMode: 136
        weightedMode: 0
        inWeight: 0.33333334
        outWeight: 0.33333334
      - serializedVersion: 3
        time: 1.5
        value: 0
        inSlope: 0
        outSlope: 0
        tangentMode: 136
        weightedMode: 0
        inWeight: 0.33333334
        outWeight: 0.33333334
      - serializedVersion: 3
        time: 1.5166667
        value: 1
        inSlope: 0
        outSlope: 0
        tangentMode: 136
        weightedMode: 0
        inWeight: 0.33333334
        outWeight: 0.33333334
      - serializedVersion: 3
        time: 1.9166666
        value: 1
        inSlope: 0
        outSlope: 0
        tangentMode: 136
        weightedMode: 0
        inWeight: 0.33333334
        outWeight: 0.33333334
      - serializedVersion: 3
        time: 1.9333333
        value: 1
        inSlope: 0
        outSlope: 0
        tangentMode: 136
        weightedMode: 0
        inWeight: 0.33333334
        outWeight: 0.33333334
      - serializedVersion: 3
        time: 2.3333333
        value: 1
        inSlope: 0
        outSlope: 0
        tangentMode: 136
        weightedMode: 0
        inWeight: 0.33333334
        outWeight: 0.33333334
      - serializedVersion: 3
        time: 2.35
        value: 0
        inSlope: 0
        outSlope: 0
        tangentMode: 136
        weightedMode: 0
        inWeight: 0.33333334
        outWeight: 0.33333334
      - serializedVersion: 3
        time: 3.8666666
        value: 0
        inSlope: 0
        outSlope: 0
        tangentMode: 136
        weightedMode: 0
        inWeight: 0.33333334
        outWeight: 0.33333334
      - serializedVersion: 3
        time: 3.8833334
        value: 1
        inSlope: 0
        outSlope: 0
        tangentMode: 136
        weightedMode: 0
        inWeight: 0.33333334
        outWeight: 0.33333334
      - serializedVersion: 3
        time: 4.1
        value: 1
        inSlope: 0
        outSlope: 0
        tangentMode: 136
        weightedMode: 0
        inWeight: 0.33333334
        outWeight: 0.33333334
      - serializedVersion: 3
        time: 4.116667
        value: 0
        inSlope: 0
        outSlope: 0
        tangentMode: 136
        weightedMode: 0
        inWeight: 0.33333334
        outWeight: 0.33333334
      - serializedVersion: 3
        time: 6.516667
        value: 0
        inSlope: 0
        outSlope: 0
        tangentMode: 136
        weightedMode: 0
        inWeight: 0.33333334
        outWeight: 0.33333334
      - serializedVersion: 3
        time: 6.5333333
        value: 1
        inSlope: 0
        outSlope: 0
        tangentMode: 136
        weightedMode: 0
        inWeight: 0.33333334
        outWeight: 0.33333334
      - serializedVersion: 3
        time: 6.9333334
        value: 1
        inSlope: 0
        outSlope: 0
        tangentMode: 136
        weightedMode: 0
        inWeight: 0.33333334
        outWeight: 0.33333334
      - serializedVersion: 3
        time: 6.95
        value: 0
        inSlope: 0
        outSlope: 0
        tangentMode: 136
        weightedMode: 0
        inWeight: 0.33333334
        outWeight: 0.33333334
      - serializedVersion: 3
        time: 9.016666
        value: 0
        inSlope: 0
        outSlope: 0
        tangentMode: 136
        weightedMode: 0
        inWeight: 0.33333334
        outWeight: 0.33333334
      m_PreInfinity: 2
      m_PostInfinity: 2
      m_RotationOrder: 4
    attribute: m_Color.a
    path: 
    classID: 114
    script: {fileID: 11500000, guid: fe87c0e1cc204ed48ad3b37840f39efc, type: 3}
  m_PPtrCurves:
  - curve:
    - time: 0
      value: {fileID: 21300000, guid: b465f7c9d3de34549bb0e513af7d1ba9, type: 3}
    - time: 0.016666668
      value: {fileID: 21300000, guid: 8b99d9d08dd24474d92bfe9f9379b6d6, type: 3}
    - time: 0.033333335
      value: {fileID: 21300000, guid: 2598bd8af37b78e4c838a396fc8f25e2, type: 3}
    - time: 0.05
      value: {fileID: 21300000, guid: c37c5ec03b6db37468bcad3f70c6d476, type: 3}
    - time: 0.06666667
      value: {fileID: 21300000, guid: d1c25a19795f34c46899d953e23e488b, type: 3}
    - time: 0.083333336
      value: {fileID: 21300000, guid: 7cda7821b686fe342a9338475be95768, type: 3}
    - time: 0.1
      value: {fileID: 21300000, guid: ab7744ebf3a675241aee4272ebc8966a, type: 3}
    - time: 0.11666667
      value: {fileID: 21300000, guid: 2b68649e715587147872163f04bffbca, type: 3}
    - time: 0.13333334
      value: {fileID: 21300000, guid: ab7744ebf3a675241aee4272ebc8966a, type: 3}
    - time: 0.15
      value: {fileID: 21300000, guid: 2b68649e715587147872163f04bffbca, type: 3}
    - time: 0.16666667
      value: {fileID: 21300000, guid: ab7744ebf3a675241aee4272ebc8966a, type: 3}
    - time: 0.18333334
      value: {fileID: 21300000, guid: 2b68649e715587147872163f04bffbca, type: 3}
    - time: 0.2
      value: {fileID: 21300000, guid: ab7744ebf3a675241aee4272ebc8966a, type: 3}
    - time: 0.21666667
      value: {fileID: 21300000, guid: 2b68649e715587147872163f04bffbca, type: 3}
    - time: 0.23333333
      value: {fileID: 21300000, guid: ab7744ebf3a675241aee4272ebc8966a, type: 3}
    - time: 0.25
      value: {fileID: 21300000, guid: 2b68649e715587147872163f04bffbca, type: 3}
    - time: 0.26666668
      value: {fileID: 21300000, guid: ab7744ebf3a675241aee4272ebc8966a, type: 3}
    - time: 0.28333333
      value: {fileID: 21300000, guid: 2b68649e715587147872163f04bffbca, type: 3}
    - time: 0.3
      value: {fileID: 21300000, guid: ab7744ebf3a675241aee4272ebc8966a, type: 3}
    - time: 0.31666666
      value: {fileID: 21300000, guid: 2b68649e715587147872163f04bffbca, type: 3}
    - time: 0.33333334
      value: {fileID: 21300000, guid: ab7744ebf3a675241aee4272ebc8966a, type: 3}
    - time: 0.35
      value: {fileID: 21300000, guid: 2b68649e715587147872163f04bffbca, type: 3}
    - time: 0.36666667
      value: {fileID: 21300000, guid: ab7744ebf3a675241aee4272ebc8966a, type: 3}
    - time: 0.38333333
      value: {fileID: 21300000, guid: 2b68649e715587147872163f04bffbca, type: 3}
    - time: 0.4
      value: {fileID: 21300000, guid: ab7744ebf3a675241aee4272ebc8966a, type: 3}
    - time: 1.5166667
      value: {fileID: 21300000, guid: b465f7c9d3de34549bb0e513af7d1ba9, type: 3}
    - time: 1.5333333
      value: {fileID: 21300000, guid: 8b99d9d08dd24474d92bfe9f9379b6d6, type: 3}
    - time: 1.55
      value: {fileID: 21300000, guid: 2598bd8af37b78e4c838a396fc8f25e2, type: 3}
    - time: 1.5666667
      value: {fileID: 21300000, guid: c37c5ec03b6db37468bcad3f70c6d476, type: 3}
    - time: 1.5833334
      value: {fileID: 21300000, guid: d1c25a19795f34c46899d953e23e488b, type: 3}
    - time: 1.6
      value: {fileID: 21300000, guid: 7cda7821b686fe342a9338475be95768, type: 3}
    - time: 1.6166667
      value: {fileID: 21300000, guid: ab7744ebf3a675241aee4272ebc8966a, type: 3}
    - time: 1.6333333
      value: {fileID: 21300000, guid: 2b68649e715587147872163f04bffbca, type: 3}
    - time: 1.65
      value: {fileID: 21300000, guid: ab7744ebf3a675241aee4272ebc8966a, type: 3}
    - time: 1.6666666
      value: {fileID: 21300000, guid: 2b68649e715587147872163f04bffbca, type: 3}
    - time: 1.6833333
      value: {fileID: 21300000, guid: ab7744ebf3a675241aee4272ebc8966a, type: 3}
    - time: 1.7
      value: {fileID: 21300000, guid: 2b68649e715587147872163f04bffbca, type: 3}
    - time: 1.7166667
      value: {fileID: 21300000, guid: ab7744ebf3a675241aee4272ebc8966a, type: 3}
    - time: 1.7333333
      value: {fileID: 21300000, guid: 2b68649e715587147872163f04bffbca, type: 3}
    - time: 1.75
      value: {fileID: 21300000, guid: ab7744ebf3a675241aee4272ebc8966a, type: 3}
    - time: 1.7666667
      value: {fileID: 21300000, guid: 2b68649e715587147872163f04bffbca, type: 3}
    - time: 1.7833333
      value: {fileID: 21300000, guid: ab7744ebf3a675241aee4272ebc8966a, type: 3}
    - time: 1.8
      value: {fileID: 21300000, guid: 2b68649e715587147872163f04bffbca, type: 3}
    - time: 1.8166667
      value: {fileID: 21300000, guid: ab7744ebf3a675241aee4272ebc8966a, type: 3}
    - time: 1.8333334
      value: {fileID: 21300000, guid: 2b68649e715587147872163f04bffbca, type: 3}
    - time: 1.85
      value: {fileID: 21300000, guid: ab7744ebf3a675241aee4272ebc8966a, type: 3}
    - time: 1.8666667
      value: {fileID: 21300000, guid: 2b68649e715587147872163f04bffbca, type: 3}
    - time: 1.8833333
      value: {fileID: 21300000, guid: ab7744ebf3a675241aee4272ebc8966a, type: 3}
    - time: 1.9
      value: {fileID: 21300000, guid: 2b68649e715587147872163f04bffbca, type: 3}
    - time: 1.9166666
      value: {fileID: 21300000, guid: ab7744ebf3a675241aee4272ebc8966a, type: 3}
    - time: 1.9333333
      value: {fileID: 21300000, guid: b465f7c9d3de34549bb0e513af7d1ba9, type: 3}
    - time: 1.95
      value: {fileID: 21300000, guid: 8b99d9d08dd24474d92bfe9f9379b6d6, type: 3}
    - time: 1.9666667
      value: {fileID: 21300000, guid: 2598bd8af37b78e4c838a396fc8f25e2, type: 3}
    - time: 1.9833333
      value: {fileID: 21300000, guid: c37c5ec03b6db37468bcad3f70c6d476, type: 3}
    - time: 2
      value: {fileID: 21300000, guid: d1c25a19795f34c46899d953e23e488b, type: 3}
    - time: 2.0166667
      value: {fileID: 21300000, guid: 7cda7821b686fe342a9338475be95768, type: 3}
    - time: 2.0333333
      value: {fileID: 21300000, guid: ab7744ebf3a675241aee4272ebc8966a, type: 3}
    - time: 2.05
      value: {fileID: 21300000, guid: 2b68649e715587147872163f04bffbca, type: 3}
    - time: 2.0666666
      value: {fileID: 21300000, guid: ab7744ebf3a675241aee4272ebc8966a, type: 3}
    - time: 2.0833333
      value: {fileID: 21300000, guid: 2b68649e715587147872163f04bffbca, type: 3}
    - time: 2.1
      value: {fileID: 21300000, guid: ab7744ebf3a675241aee4272ebc8966a, type: 3}
    - time: 2.1166666
      value: {fileID: 21300000, guid: 2b68649e715587147872163f04bffbca, type: 3}
    - time: 2.1333334
      value: {fileID: 21300000, guid: ab7744ebf3a675241aee4272ebc8966a, type: 3}
    - time: 2.15
      value: {fileID: 21300000, guid: 2b68649e715587147872163f04bffbca, type: 3}
    - time: 2.1666667
      value: {fileID: 21300000, guid: ab7744ebf3a675241aee4272ebc8966a, type: 3}
    - time: 2.1833334
      value: {fileID: 21300000, guid: 2b68649e715587147872163f04bffbca, type: 3}
    - time: 2.2
      value: {fileID: 21300000, guid: ab7744ebf3a675241aee4272ebc8966a, type: 3}
    - time: 2.2166667
      value: {fileID: 21300000, guid: 2b68649e715587147872163f04bffbca, type: 3}
    - time: 2.2333333
      value: {fileID: 21300000, guid: ab7744ebf3a675241aee4272ebc8966a, type: 3}
    - time: 2.25
      value: {fileID: 21300000, guid: 2b68649e715587147872163f04bffbca, type: 3}
    - time: 2.2666667
      value: {fileID: 21300000, guid: ab7744ebf3a675241aee4272ebc8966a, type: 3}
    - time: 2.2833333
      value: {fileID: 21300000, guid: 2b68649e715587147872163f04bffbca, type: 3}
    - time: 2.3
      value: {fileID: 21300000, guid: ab7744ebf3a675241aee4272ebc8966a, type: 3}
    - time: 2.3166666
      value: {fileID: 21300000, guid: 2b68649e715587147872163f04bffbca, type: 3}
    - time: 2.3333333
      value: {fileID: 21300000, guid: ab7744ebf3a675241aee4272ebc8966a, type: 3}
    - time: 3.8833334
      value: {fileID: 21300000, guid: b465f7c9d3de34549bb0e513af7d1ba9, type: 3}
    - time: 3.9
      value: {fileID: 21300000, guid: 8b99d9d08dd24474d92bfe9f9379b6d6, type: 3}
    - time: 3.9166667
      value: {fileID: 21300000, guid: 2598bd8af37b78e4c838a396fc8f25e2, type: 3}
    - time: 3.9333334
      value: {fileID: 21300000, guid: c37c5ec03b6db37468bcad3f70c6d476, type: 3}
    - time: 3.95
      value: {fileID: 21300000, guid: d1c25a19795f34c46899d953e23e488b, type: 3}
    - time: 3.9666667
      value: {fileID: 21300000, guid: 7cda7821b686fe342a9338475be95768, type: 3}
    - time: 3.9833333
      value: {fileID: 21300000, guid: ab7744ebf3a675241aee4272ebc8966a, type: 3}
    - time: 4
      value: {fileID: 21300000, guid: 2b68649e715587147872163f04bffbca, type: 3}
    - time: 4.016667
      value: {fileID: 21300000, guid: ab7744ebf3a675241aee4272ebc8966a, type: 3}
    - time: 4.0333333
      value: {fileID: 21300000, guid: 2b68649e715587147872163f04bffbca, type: 3}
    - time: 4.05
      value: {fileID: 21300000, guid: ab7744ebf3a675241aee4272ebc8966a, type: 3}
    - time: 4.0666666
      value: {fileID: 21300000, guid: 2b68649e715587147872163f04bffbca, type: 3}
    - time: 4.0833335
      value: {fileID: 21300000, guid: ab7744ebf3a675241aee4272ebc8966a, type: 3}
    - time: 6.5333333
      value: {fileID: 21300000, guid: b465f7c9d3de34549bb0e513af7d1ba9, type: 3}
    - time: 6.55
      value: {fileID: 21300000, guid: 8b99d9d08dd24474d92bfe9f9379b6d6, type: 3}
    - time: 6.5666666
      value: {fileID: 21300000, guid: 2598bd8af37b78e4c838a396fc8f25e2, type: 3}
    - time: 6.5833335
      value: {fileID: 21300000, guid: c37c5ec03b6db37468bcad3f70c6d476, type: 3}
    - time: 6.6
      value: {fileID: 21300000, guid: d1c25a19795f34c46899d953e23e488b, type: 3}
    - time: 6.616667
      value: {fileID: 21300000, guid: 7cda7821b686fe342a9338475be95768, type: 3}
    - time: 6.633333
      value: {fileID: 21300000, guid: ab7744ebf3a675241aee4272ebc8966a, type: 3}
    - time: 6.65
      value: {fileID: 21300000, guid: 2b68649e715587147872163f04bffbca, type: 3}
    - time: 6.6666665
      value: {fileID: 21300000, guid: ab7744ebf3a675241aee4272ebc8966a, type: 3}
    - time: 6.6833334
      value: {fileID: 21300000, guid: 2b68649e715587147872163f04bffbca, type: 3}
    - time: 6.7
      value: {fileID: 21300000, guid: ab7744ebf3a675241aee4272ebc8966a, type: 3}
    - time: 6.7166667
      value: {fileID: 21300000, guid: 2b68649e715587147872163f04bffbca, type: 3}
    - time: 6.733333
      value: {fileID: 21300000, guid: ab7744ebf3a675241aee4272ebc8966a, type: 3}
    - time: 6.75
      value: {fileID: 21300000, guid: 2b68649e715587147872163f04bffbca, type: 3}
    - time: 6.766667
      value: {fileID: 21300000, guid: ab7744ebf3a675241aee4272ebc8966a, type: 3}
    - time: 6.7833333
      value: {fileID: 21300000, guid: 2b68649e715587147872163f04bffbca, type: 3}
    - time: 6.8
      value: {fileID: 21300000, guid: ab7744ebf3a675241aee4272ebc8966a, type: 3}
    - time: 6.8166666
      value: {fileID: 21300000, guid: 2b68649e715587147872163f04bffbca, type: 3}
    - time: 6.8333335
      value: {fileID: 21300000, guid: ab7744ebf3a675241aee4272ebc8966a, type: 3}
    - time: 6.85
      value: {fileID: 21300000, guid: 2b68649e715587147872163f04bffbca, type: 3}
    - time: 6.866667
      value: {fileID: 21300000, guid: ab7744ebf3a675241aee4272ebc8966a, type: 3}
    - time: 6.883333
      value: {fileID: 21300000, guid: 2b68649e715587147872163f04bffbca, type: 3}
    - time: 6.9
      value: {fileID: 21300000, guid: ab7744ebf3a675241aee4272ebc8966a, type: 3}
    - time: 6.9166665
      value: {fileID: 21300000, guid: 2b68649e715587147872163f04bffbca, type: 3}
    - time: 6.9333334
      value: {fileID: 21300000, guid: ab7744ebf3a675241aee4272ebc8966a, type: 3}
    attribute: m_Sprite
    path: 
    classID: 114
    script: {fileID: 11500000, guid: fe87c0e1cc204ed48ad3b37840f39efc, type: 3}
  m_SampleRate: 60
  m_WrapMode: 0
  m_Bounds:
    m_Center: {x: 0, y: 0, z: 0}
    m_Extent: {x: 0, y: 0, z: 0}
  m_ClipBindingConstant:
    genericBindings:
    - serializedVersion: 2
      path: 0
      attribute: 304273561
      script: {fileID: 11500000, guid: fe87c0e1cc204ed48ad3b37840f39efc, type: 3}
      typeID: 114
      customType: 0
      isPPtrCurve: 0
    - serializedVersion: 2
      path: 0
      attribute: 2015549526
      script: {fileID: 11500000, guid: fe87c0e1cc204ed48ad3b37840f39efc, type: 3}
      typeID: 114
      customType: 0
      isPPtrCurve: 1
    pptrCurveMapping:
    - {fileID: 21300000, guid: b465f7c9d3de34549bb0e513af7d1ba9, type: 3}
    - {fileID: 21300000, guid: 8b99d9d08dd24474d92bfe9f9379b6d6, type: 3}
    - {fileID: 21300000, guid: 2598bd8af37b78e4c838a396fc8f25e2, type: 3}
    - {fileID: 21300000, guid: c37c5ec03b6db37468bcad3f70c6d476, type: 3}
    - {fileID: 21300000, guid: d1c25a19795f34c46899d953e23e488b, type: 3}
    - {fileID: 21300000, guid: 7cda7821b686fe342a9338475be95768, type: 3}
    - {fileID: 21300000, guid: ab7744ebf3a675241aee4272ebc8966a, type: 3}
    - {fileID: 21300000, guid: 2b68649e715587147872163f04bffbca, type: 3}
    - {fileID: 21300000, guid: ab7744ebf3a675241aee4272ebc8966a, type: 3}
    - {fileID: 21300000, guid: 2b68649e715587147872163f04bffbca, type: 3}
    - {fileID: 21300000, guid: ab7744ebf3a675241aee4272ebc8966a, type: 3}
    - {fileID: 21300000, guid: 2b68649e715587147872163f04bffbca, type: 3}
    - {fileID: 21300000, guid: ab7744ebf3a675241aee4272ebc8966a, type: 3}
    - {fileID: 21300000, guid: 2b68649e715587147872163f04bffbca, type: 3}
    - {fileID: 21300000, guid: ab7744ebf3a675241aee4272ebc8966a, type: 3}
    - {fileID: 21300000, guid: 2b68649e715587147872163f04bffbca, type: 3}
    - {fileID: 21300000, guid: ab7744ebf3a675241aee4272ebc8966a, type: 3}
    - {fileID: 21300000, guid: 2b68649e715587147872163f04bffbca, type: 3}
    - {fileID: 21300000, guid: ab7744ebf3a675241aee4272ebc8966a, type: 3}
    - {fileID: 21300000, guid: 2b68649e715587147872163f04bffbca, type: 3}
    - {fileID: 21300000, guid: ab7744ebf3a675241aee4272ebc8966a, type: 3}
    - {fileID: 21300000, guid: 2b68649e715587147872163f04bffbca, type: 3}
    - {fileID: 21300000, guid: ab7744ebf3a675241aee4272ebc8966a, type: 3}
    - {fileID: 21300000, guid: 2b68649e715587147872163f04bffbca, type: 3}
    - {fileID: 21300000, guid: ab7744ebf3a675241aee4272ebc8966a, type: 3}
    - {fileID: 21300000, guid: b465f7c9d3de34549bb0e513af7d1ba9, type: 3}
    - {fileID: 21300000, guid: 8b99d9d08dd24474d92bfe9f9379b6d6, type: 3}
    - {fileID: 21300000, guid: 2598bd8af37b78e4c838a396fc8f25e2, type: 3}
    - {fileID: 21300000, guid: c37c5ec03b6db37468bcad3f70c6d476, type: 3}
    - {fileID: 21300000, guid: d1c25a19795f34c46899d953e23e488b, type: 3}
    - {fileID: 21300000, guid: 7cda7821b686fe342a9338475be95768, type: 3}
    - {fileID: 21300000, guid: ab7744ebf3a675241aee4272ebc8966a, type: 3}
    - {fileID: 21300000, guid: 2b68649e715587147872163f04bffbca, type: 3}
    - {fileID: 21300000, guid: ab7744ebf3a675241aee4272ebc8966a, type: 3}
    - {fileID: 21300000, guid: 2b68649e715587147872163f04bffbca, type: 3}
    - {fileID: 21300000, guid: ab7744ebf3a675241aee4272ebc8966a, type: 3}
    - {fileID: 21300000, guid: 2b68649e715587147872163f04bffbca, type: 3}
    - {fileID: 21300000, guid: ab7744ebf3a675241aee4272ebc8966a, type: 3}
    - {fileID: 21300000, guid: 2b68649e715587147872163f04bffbca, type: 3}
    - {fileID: 21300000, guid: ab7744ebf3a675241aee4272ebc8966a, type: 3}
    - {fileID: 21300000, guid: 2b68649e715587147872163f04bffbca, type: 3}
    - {fileID: 21300000, guid: ab7744ebf3a675241aee4272ebc8966a, type: 3}
    - {fileID: 21300000, guid: 2b68649e715587147872163f04bffbca, type: 3}
    - {fileID: 21300000, guid: ab7744ebf3a675241aee4272ebc8966a, type: 3}
    - {fileID: 21300000, guid: 2b68649e715587147872163f04bffbca, type: 3}
    - {fileID: 21300000, guid: ab7744ebf3a675241aee4272ebc8966a, type: 3}
    - {fileID: 21300000, guid: 2b68649e715587147872163f04bffbca, type: 3}
    - {fileID: 21300000, guid: ab7744ebf3a675241aee4272ebc8966a, type: 3}
    - {fileID: 21300000, guid: 2b68649e715587147872163f04bffbca, type: 3}
    - {fileID: 21300000, guid: ab7744ebf3a675241aee4272ebc8966a, type: 3}
    - {fileID: 21300000, guid: b465f7c9d3de34549bb0e513af7d1ba9, type: 3}
    - {fileID: 21300000, guid: 8b99d9d08dd24474d92bfe9f9379b6d6, type: 3}
    - {fileID: 21300000, guid: 2598bd8af37b78e4c838a396fc8f25e2, type: 3}
    - {fileID: 21300000, guid: c37c5ec03b6db37468bcad3f70c6d476, type: 3}
    - {fileID: 21300000, guid: d1c25a19795f34c46899d953e23e488b, type: 3}
    - {fileID: 21300000, guid: 7cda7821b686fe342a9338475be95768, type: 3}
    - {fileID: 21300000, guid: ab7744ebf3a675241aee4272ebc8966a, type: 3}
    - {fileID: 21300000, guid: 2b68649e715587147872163f04bffbca, type: 3}
    - {fileID: 21300000, guid: ab7744ebf3a675241aee4272ebc8966a, type: 3}
    - {fileID: 21300000, guid: 2b68649e715587147872163f04bffbca, type: 3}
    - {fileID: 21300000, guid: ab7744ebf3a675241aee4272ebc8966a, type: 3}
    - {fileID: 21300000, guid: 2b68649e715587147872163f04bffbca, type: 3}
    - {fileID: 21300000, guid: ab7744ebf3a675241aee4272ebc8966a, type: 3}
    - {fileID: 21300000, guid: 2b68649e715587147872163f04bffbca, type: 3}
    - {fileID: 21300000, guid: ab7744ebf3a675241aee4272ebc8966a, type: 3}
    - {fileID: 21300000, guid: 2b68649e715587147872163f04bffbca, type: 3}
    - {fileID: 21300000, guid: ab7744ebf3a675241aee4272ebc8966a, type: 3}
    - {fileID: 21300000, guid: 2b68649e715587147872163f04bffbca, type: 3}
    - {fileID: 21300000, guid: ab7744ebf3a675241aee4272ebc8966a, type: 3}
    - {fileID: 21300000, guid: 2b68649e715587147872163f04bffbca, type: 3}
    - {fileID: 21300000, guid: ab7744ebf3a675241aee4272ebc8966a, type: 3}
    - {fileID: 21300000, guid: 2b68649e715587147872163f04bffbca, type: 3}
    - {fileID: 21300000, guid: ab7744ebf3a675241aee4272ebc8966a, type: 3}
    - {fileID: 21300000, guid: 2b68649e715587147872163f04bffbca, type: 3}
    - {fileID: 21300000, guid: ab7744ebf3a675241aee4272ebc8966a, type: 3}
    - {fileID: 21300000, guid: b465f7c9d3de34549bb0e513af7d1ba9, type: 3}
    - {fileID: 21300000, guid: 8b99d9d08dd24474d92bfe9f9379b6d6, type: 3}
    - {fileID: 21300000, guid: 2598bd8af37b78e4c838a396fc8f25e2, type: 3}
    - {fileID: 21300000, guid: c37c5ec03b6db37468bcad3f70c6d476, type: 3}
    - {fileID: 21300000, guid: d1c25a19795f34c46899d953e23e488b, type: 3}
    - {fileID: 21300000, guid: 7cda7821b686fe342a9338475be95768, type: 3}
    - {fileID: 21300000, guid: ab7744ebf3a675241aee4272ebc8966a, type: 3}
    - {fileID: 21300000, guid: 2b68649e715587147872163f04bffbca, type: 3}
    - {fileID: 21300000, guid: ab7744ebf3a675241aee4272ebc8966a, type: 3}
    - {fileID: 21300000, guid: 2b68649e715587147872163f04bffbca, type: 3}
    - {fileID: 21300000, guid: ab7744ebf3a675241aee4272ebc8966a, type: 3}
    - {fileID: 21300000, guid: 2b68649e715587147872163f04bffbca, type: 3}
    - {fileID: 21300000, guid: ab7744ebf3a675241aee4272ebc8966a, type: 3}
    - {fileID: 21300000, guid: b465f7c9d3de34549bb0e513af7d1ba9, type: 3}
    - {fileID: 21300000, guid: 8b99d9d08dd24474d92bfe9f9379b6d6, type: 3}
    - {fileID: 21300000, guid: 2598bd8af37b78e4c838a396fc8f25e2, type: 3}
    - {fileID: 21300000, guid: c37c5ec03b6db37468bcad3f70c6d476, type: 3}
    - {fileID: 21300000, guid: d1c25a19795f34c46899d953e23e488b, type: 3}
    - {fileID: 21300000, guid: 7cda7821b686fe342a9338475be95768, type: 3}
    - {fileID: 21300000, guid: ab7744ebf3a675241aee4272ebc8966a, type: 3}
    - {fileID: 21300000, guid: 2b68649e715587147872163f04bffbca, type: 3}
    - {fileID: 21300000, guid: ab7744ebf3a675241aee4272ebc8966a, type: 3}
    - {fileID: 21300000, guid: 2b68649e715587147872163f04bffbca, type: 3}
    - {fileID: 21300000, guid: ab7744ebf3a675241aee4272ebc8966a, type: 3}
    - {fileID: 21300000, guid: 2b68649e715587147872163f04bffbca, type: 3}
    - {fileID: 21300000, guid: ab7744ebf3a675241aee4272ebc8966a, type: 3}
    - {fileID: 21300000, guid: 2b68649e715587147872163f04bffbca, type: 3}
    - {fileID: 21300000, guid: ab7744ebf3a675241aee4272ebc8966a, type: 3}
    - {fileID: 21300000, guid: 2b68649e715587147872163f04bffbca, type: 3}
    - {fileID: 21300000, guid: ab7744ebf3a675241aee4272ebc8966a, type: 3}
    - {fileID: 21300000, guid: 2b68649e715587147872163f04bffbca, type: 3}
    - {fileID: 21300000, guid: ab7744ebf3a675241aee4272ebc8966a, type: 3}
    - {fileID: 21300000, guid: 2b68649e715587147872163f04bffbca, type: 3}
    - {fileID: 21300000, guid: ab7744ebf3a675241aee4272ebc8966a, type: 3}
    - {fileID: 21300000, guid: 2b68649e715587147872163f04bffbca, type: 3}
    - {fileID: 21300000, guid: ab7744ebf3a675241aee4272ebc8966a, type: 3}
    - {fileID: 21300000, guid: 2b68649e715587147872163f04bffbca, type: 3}
    - {fileID: 21300000, guid: ab7744ebf3a675241aee4272ebc8966a, type: 3}
  m_AnimationClipSettings:
    serializedVersion: 2
    m_AdditiveReferencePoseClip: {fileID: 0}
    m_AdditiveReferencePoseTime: 0
    m_StartTime: 0
    m_StopTime: 9.016666
    m_OrientationOffsetY: 0
    m_Level: 0
    m_CycleOffset: 0
    m_HasAdditiveReferencePose: 0
    m_LoopTime: 1
    m_LoopBlend: 0
    m_LoopBlendOrientation: 0
    m_LoopBlendPositionY: 0
    m_LoopBlendPositionXZ: 0
    m_KeepOriginalOrientation: 0
    m_KeepOriginalPositionY: 1
    m_KeepOriginalPositionXZ: 0
    m_HeightFromFeet: 0
    m_Mirror: 0
  m_EditorCurves:
  - curve:
      serializedVersion: 2
      m_Curve:
      - serializedVersion: 3
        time: 0
        value: 1
        inSlope: 0
        outSlope: 0
        tangentMode: 136
        weightedMode: 0
        inWeight: 0.33333334
        outWeight: 0.33333334
      - serializedVersion: 3
        time: 0.4
        value: 1
        inSlope: 0
        outSlope: 0
        tangentMode: 136
        weightedMode: 0
        inWeight: 0.33333334
        outWeight: 0.33333334
      - serializedVersion: 3
        time: 0.41666666
        value: 0
        inSlope: 0
        outSlope: 0
        tangentMode: 136
        weightedMode: 0
        inWeight: 0.33333334
        outWeight: 0.33333334
      - serializedVersion: 3
        time: 1.5
        value: 0
        inSlope: 0
        outSlope: 0
        tangentMode: 136
        weightedMode: 0
        inWeight: 0.33333334
        outWeight: 0.33333334
      - serializedVersion: 3
        time: 1.5166667
        value: 1
        inSlope: 0
        outSlope: 0
        tangentMode: 136
        weightedMode: 0
        inWeight: 0.33333334
        outWeight: 0.33333334
      - serializedVersion: 3
        time: 1.9166666
        value: 1
        inSlope: 0
        outSlope: 0
        tangentMode: 136
        weightedMode: 0
        inWeight: 0.33333334
        outWeight: 0.33333334
      - serializedVersion: 3
        time: 1.9333333
        value: 1
        inSlope: 0
        outSlope: 0
        tangentMode: 136
        weightedMode: 0
        inWeight: 0.33333334
        outWeight: 0.33333334
      - serializedVersion: 3
        time: 2.3333333
        value: 1
        inSlope: 0
        outSlope: 0
        tangentMode: 136
        weightedMode: 0
        inWeight: 0.33333334
        outWeight: 0.33333334
      - serializedVersion: 3
        time: 2.35
        value: 0
        inSlope: 0
        outSlope: 0
        tangentMode: 136
        weightedMode: 0
        inWeight: 0.33333334
        outWeight: 0.33333334
      - serializedVersion: 3
        time: 3.8666666
        value: 0
        inSlope: 0
        outSlope: 0
        tangentMode: 136
        weightedMode: 0
        inWeight: 0.33333334
        outWeight: 0.33333334
      - serializedVersion: 3
        time: 3.8833334
        value: 1
        inSlope: 0
        outSlope: 0
        tangentMode: 136
        weightedMode: 0
        inWeight: 0.33333334
        outWeight: 0.33333334
      - serializedVersion: 3
        time: 4.1
        value: 1
        inSlope: 0
        outSlope: 0
        tangentMode: 136
        weightedMode: 0
        inWeight: 0.33333334
        outWeight: 0.33333334
      - serializedVersion: 3
        time: 4.116667
        value: 0
        inSlope: 0
        outSlope: 0
        tangentMode: 136
        weightedMode: 0
        inWeight: 0.33333334
        outWeight: 0.33333334
      - serializedVersion: 3
        time: 6.516667
        value: 0
        inSlope: 0
        outSlope: 0
        tangentMode: 136
        weightedMode: 0
        inWeight: 0.33333334
        outWeight: 0.33333334
      - serializedVersion: 3
        time: 6.5333333
        value: 1
        inSlope: 0
        outSlope: 0
        tangentMode: 136
        weightedMode: 0
        inWeight: 0.33333334
        outWeight: 0.33333334
      - serializedVersion: 3
        time: 6.9333334
        value: 1
        inSlope: 0
        outSlope: 0
        tangentMode: 136
        weightedMode: 0
        inWeight: 0.33333334
        outWeight: 0.33333334
      - serializedVersion: 3
        time: 6.95
        value: 0
        inSlope: 0
        outSlope: 0
        tangentMode: 136
        weightedMode: 0
        inWeight: 0.33333334
        outWeight: 0.33333334
      - serializedVersion: 3
        time: 9.016666
        value: 0
        inSlope: 0
        outSlope: 0
        tangentMode: 136
        weightedMode: 0
        inWeight: 0.33333334
        outWeight: 0.33333334
      m_PreInfinity: 2
      m_PostInfinity: 2
      m_RotationOrder: 4
    attribute: m_Color.a
    path: 
    classID: 114
    script: {fileID: 11500000, guid: fe87c0e1cc204ed48ad3b37840f39efc, type: 3}
  m_EulerEditorCurves: []
  m_HasGenericRootTransform: 0
  m_HasMotionFloatCurves: 0
  m_Events: []
