%YAML 1.1
%TAG !u! tag:unity3d.com,2011:
--- !u!74 &7400000
AnimationClip:
  m_ObjectHideFlags: 0
  m_CorrespondingSourceObject: {fileID: 0}
  m_PrefabInstance: {fileID: 0}
  m_PrefabAsset: {fileID: 0}
  m_Name: bacettini
  serializedVersion: 6
  m_Legacy: 0
  m_Compressed: 0
  m_UseHighQualityCurve: 1
  m_RotationCurves: []
  m_CompressedRotationCurves: []
  m_EulerCurves: []
  m_PositionCurves: []
  m_ScaleCurves: []
  m_FloatCurves: []
  m_PPtrCurves:
  - curve:
    - time: 0
      value: {fileID: 2389869208362393924, guid: 985c3ab3e8dccf341b4b9d40ef289894,
        type: 3}
    - time: 0.083333336
      value: {fileID: -3946835605623983615, guid: 985c3ab3e8dccf341b4b9d40ef289894,
        type: 3}
    - time: 0.16666667
      value: {fileID: 6239289596494685676, guid: 985c3ab3e8dccf341b4b9d40ef289894,
        type: 3}
    - time: 0.25
      value: {fileID: 6464827967401163474, guid: 985c3ab3e8dccf341b4b9d40ef289894,
        type: 3}
    - time: 0.33333334
      value: {fileID: 4216244395127014036, guid: 985c3ab3e8dccf341b4b9d40ef289894,
        type: 3}
    - time: 0.41666666
      value: {fileID: -7566502832129748048, guid: 985c3ab3e8dccf341b4b9d40ef289894,
        type: 3}
    - time: 0.5
      value: {fileID: -2028312274532298843, guid: 985c3ab3e8dccf341b4b9d40ef289894,
        type: 3}
    - time: 0.5833333
      value: {fileID: -6938052317832448573, guid: 985c3ab3e8dccf341b4b9d40ef289894,
        type: 3}
    - time: 0.6666667
      value: {fileID: 552437257786156750, guid: 985c3ab3e8dccf341b4b9d40ef289894,
        type: 3}
    - time: 0.75
      value: {fileID: -8980518956215420643, guid: 985c3ab3e8dccf341b4b9d40ef289894,
        type: 3}
    - time: 0.8333333
      value: {fileID: 8848385859956095542, guid: 985c3ab3e8dccf341b4b9d40ef289894,
        type: 3}
    - time: 0.9166667
      value: {fileID: 5727821821251574956, guid: 985c3ab3e8dccf341b4b9d40ef289894,
        type: 3}
    - time: 1
      value: {fileID: -7353833214085284309, guid: 985c3ab3e8dccf341b4b9d40ef289894,
        type: 3}
    - time: 1.0833334
      value: {fileID: -6734355651030263633, guid: 985c3ab3e8dccf341b4b9d40ef289894,
        type: 3}
    - time: 1.1666666
      value: {fileID: 874568453478320083, guid: 985c3ab3e8dccf341b4b9d40ef289894,
        type: 3}
    - time: 1.25
      value: {fileID: -2262682082758707369, guid: 985c3ab3e8dccf341b4b9d40ef289894,
        type: 3}
    - time: 1.3333334
      value: {fileID: 8595175137849257352, guid: 985c3ab3e8dccf341b4b9d40ef289894,
        type: 3}
    - time: 1.4166666
      value: {fileID: -8626268167370740807, guid: 985c3ab3e8dccf341b4b9d40ef289894,
        type: 3}
    - time: 1.5
      value: {fileID: -4570521350241160701, guid: 985c3ab3e8dccf341b4b9d40ef289894,
        type: 3}
    - time: 1.5833334
      value: {fileID: 8827091473404501192, guid: 985c3ab3e8dccf341b4b9d40ef289894,
        type: 3}
    - time: 1.6666666
      value: {fileID: 7203701104435181101, guid: 985c3ab3e8dccf341b4b9d40ef289894,
        type: 3}
    - time: 1.75
      value: {fileID: -1522099343354816104, guid: 985c3ab3e8dccf341b4b9d40ef289894,
        type: 3}
    - time: 1.8333334
      value: {fileID: -544984732517521774, guid: 985c3ab3e8dccf341b4b9d40ef289894,
        type: 3}
    - time: 1.9166666
      value: {fileID: -3333364418948899656, guid: 985c3ab3e8dccf341b4b9d40ef289894,
        type: 3}
    - time: 2
      value: {fileID: -4275757663697989658, guid: 985c3ab3e8dccf341b4b9d40ef289894,
        type: 3}
    - time: 2.0833333
      value: {fileID: -7278988458378265689, guid: 985c3ab3e8dccf341b4b9d40ef289894,
        type: 3}
    - time: 2.1666667
      value: {fileID: -9166206480756306846, guid: 985c3ab3e8dccf341b4b9d40ef289894,
        type: 3}
    - time: 2.25
      value: {fileID: 4264704730576145055, guid: 985c3ab3e8dccf341b4b9d40ef289894,
        type: 3}
    - time: 2.3333333
      value: {fileID: 1297940841419415762, guid: 985c3ab3e8dccf341b4b9d40ef289894,
        type: 3}
    - time: 2.4166667
      value: {fileID: -7566344930238423084, guid: 985c3ab3e8dccf341b4b9d40ef289894,
        type: 3}
    attribute: m_Sprite
    path: 
    classID: 212
    script: {fileID: 0}
  m_SampleRate: 12
  m_WrapMode: 0
  m_Bounds:
    m_Center: {x: 0, y: 0, z: 0}
    m_Extent: {x: 0, y: 0, z: 0}
  m_ClipBindingConstant:
    genericBindings:
    - serializedVersion: 2
      path: 0
      attribute: 0
      script: {fileID: 0}
      typeID: 212
      customType: 23
      isPPtrCurve: 1
    pptrCurveMapping:
    - {fileID: 2389869208362393924, guid: 985c3ab3e8dccf341b4b9d40ef289894, type: 3}
    - {fileID: -3946835605623983615, guid: 985c3ab3e8dccf341b4b9d40ef289894, type: 3}
    - {fileID: 6239289596494685676, guid: 985c3ab3e8dccf341b4b9d40ef289894, type: 3}
    - {fileID: 6464827967401163474, guid: 985c3ab3e8dccf341b4b9d40ef289894, type: 3}
    - {fileID: 4216244395127014036, guid: 985c3ab3e8dccf341b4b9d40ef289894, type: 3}
    - {fileID: -7566502832129748048, guid: 985c3ab3e8dccf341b4b9d40ef289894, type: 3}
    - {fileID: -2028312274532298843, guid: 985c3ab3e8dccf341b4b9d40ef289894, type: 3}
    - {fileID: -6938052317832448573, guid: 985c3ab3e8dccf341b4b9d40ef289894, type: 3}
    - {fileID: 552437257786156750, guid: 985c3ab3e8dccf341b4b9d40ef289894, type: 3}
    - {fileID: -8980518956215420643, guid: 985c3ab3e8dccf341b4b9d40ef289894, type: 3}
    - {fileID: 8848385859956095542, guid: 985c3ab3e8dccf341b4b9d40ef289894, type: 3}
    - {fileID: 5727821821251574956, guid: 985c3ab3e8dccf341b4b9d40ef289894, type: 3}
    - {fileID: -7353833214085284309, guid: 985c3ab3e8dccf341b4b9d40ef289894, type: 3}
    - {fileID: -6734355651030263633, guid: 985c3ab3e8dccf341b4b9d40ef289894, type: 3}
    - {fileID: 874568453478320083, guid: 985c3ab3e8dccf341b4b9d40ef289894, type: 3}
    - {fileID: -2262682082758707369, guid: 985c3ab3e8dccf341b4b9d40ef289894, type: 3}
    - {fileID: 8595175137849257352, guid: 985c3ab3e8dccf341b4b9d40ef289894, type: 3}
    - {fileID: -8626268167370740807, guid: 985c3ab3e8dccf341b4b9d40ef289894, type: 3}
    - {fileID: -4570521350241160701, guid: 985c3ab3e8dccf341b4b9d40ef289894, type: 3}
    - {fileID: 8827091473404501192, guid: 985c3ab3e8dccf341b4b9d40ef289894, type: 3}
    - {fileID: 7203701104435181101, guid: 985c3ab3e8dccf341b4b9d40ef289894, type: 3}
    - {fileID: -1522099343354816104, guid: 985c3ab3e8dccf341b4b9d40ef289894, type: 3}
    - {fileID: -544984732517521774, guid: 985c3ab3e8dccf341b4b9d40ef289894, type: 3}
    - {fileID: -3333364418948899656, guid: 985c3ab3e8dccf341b4b9d40ef289894, type: 3}
    - {fileID: -4275757663697989658, guid: 985c3ab3e8dccf341b4b9d40ef289894, type: 3}
    - {fileID: -7278988458378265689, guid: 985c3ab3e8dccf341b4b9d40ef289894, type: 3}
    - {fileID: -9166206480756306846, guid: 985c3ab3e8dccf341b4b9d40ef289894, type: 3}
    - {fileID: 4264704730576145055, guid: 985c3ab3e8dccf341b4b9d40ef289894, type: 3}
    - {fileID: 1297940841419415762, guid: 985c3ab3e8dccf341b4b9d40ef289894, type: 3}
    - {fileID: -7566344930238423084, guid: 985c3ab3e8dccf341b4b9d40ef289894, type: 3}
  m_AnimationClipSettings:
    serializedVersion: 2
    m_AdditiveReferencePoseClip: {fileID: 0}
    m_AdditiveReferencePoseTime: 0
    m_StartTime: 0
    m_StopTime: 2.5
    m_OrientationOffsetY: 0
    m_Level: 0
    m_CycleOffset: 0
    m_HasAdditiveReferencePose: 0
    m_LoopTime: 1
    m_LoopBlend: 0
    m_LoopBlendOrientation: 0
    m_LoopBlendPositionY: 0
    m_LoopBlendPositionXZ: 0
    m_KeepOriginalOrientation: 0
    m_KeepOriginalPositionY: 1
    m_KeepOriginalPositionXZ: 0
    m_HeightFromFeet: 0
    m_Mirror: 0
  m_EditorCurves: []
  m_EulerEditorCurves: []
  m_HasGenericRootTransform: 0
  m_HasMotionFloatCurves: 0
  m_Events: []
