%YAML 1.1
%TAG !u! tag:unity3d.com,2011:
--- !u!74 &7400000
AnimationClip:
  m_ObjectHideFlags: 0
  m_CorrespondingSourceObject: {fileID: 0}
  m_PrefabInstance: {fileID: 0}
  m_PrefabAsset: {fileID: 0}
  m_Name: bouncinghead
  serializedVersion: 6
  m_Legacy: 0
  m_Compressed: 0
  m_UseHighQualityCurve: 1
  m_RotationCurves: []
  m_CompressedRotationCurves: []
  m_EulerCurves: []
  m_PositionCurves: []
  m_ScaleCurves: []
  m_FloatCurves: []
  m_PPtrCurves:
  - curve:
    - time: 0
      value: {fileID: 2072427231143691337, guid: 36977bec4856b0646be5dfad4ddc53e9,
        type: 3}
    - time: 0.083333336
      value: {fileID: 3692254426484346195, guid: 36977bec4856b0646be5dfad4ddc53e9,
        type: 3}
    - time: 0.16666667
      value: {fileID: -4748861804515989979, guid: 36977bec4856b0646be5dfad4ddc53e9,
        type: 3}
    - time: 0.25
      value: {fileID: 6000221457297074576, guid: 36977bec4856b0646be5dfad4ddc53e9,
        type: 3}
    - time: 0.33333334
      value: {fileID: 3896590291479660283, guid: 36977bec4856b0646be5dfad4ddc53e9,
        type: 3}
    - time: 0.41666666
      value: {fileID: -5178187178968982079, guid: 36977bec4856b0646be5dfad4ddc53e9,
        type: 3}
    - time: 0.5
      value: {fileID: 771085020030558845, guid: 36977bec4856b0646be5dfad4ddc53e9,
        type: 3}
    - time: 0.5833333
      value: {fileID: -3052726830192612626, guid: 36977bec4856b0646be5dfad4ddc53e9,
        type: 3}
    - time: 0.6666667
      value: {fileID: -8043679910666700551, guid: 36977bec4856b0646be5dfad4ddc53e9,
        type: 3}
    - time: 0.75
      value: {fileID: 7034261333957922207, guid: 36977bec4856b0646be5dfad4ddc53e9,
        type: 3}
    - time: 0.8333333
      value: {fileID: -7058761566991973735, guid: 36977bec4856b0646be5dfad4ddc53e9,
        type: 3}
    - time: 0.9166667
      value: {fileID: 5432747336571879507, guid: 36977bec4856b0646be5dfad4ddc53e9,
        type: 3}
    - time: 1
      value: {fileID: 8674276885390013568, guid: 36977bec4856b0646be5dfad4ddc53e9,
        type: 3}
    - time: 1.0833334
      value: {fileID: -7881539117064562641, guid: 36977bec4856b0646be5dfad4ddc53e9,
        type: 3}
    - time: 1.1666666
      value: {fileID: 8844397728595293574, guid: 36977bec4856b0646be5dfad4ddc53e9,
        type: 3}
    - time: 1.25
      value: {fileID: -410416730141453683, guid: 36977bec4856b0646be5dfad4ddc53e9,
        type: 3}
    - time: 1.3333334
      value: {fileID: -3971466526514624352, guid: 36977bec4856b0646be5dfad4ddc53e9,
        type: 3}
    - time: 1.4166666
      value: {fileID: 346156652232912805, guid: 36977bec4856b0646be5dfad4ddc53e9,
        type: 3}
    - time: 1.5
      value: {fileID: 437527424991158530, guid: 36977bec4856b0646be5dfad4ddc53e9,
        type: 3}
    - time: 1.5833334
      value: {fileID: -7101808328340426846, guid: 36977bec4856b0646be5dfad4ddc53e9,
        type: 3}
    - time: 1.6666666
      value: {fileID: 807749392994123841, guid: 36977bec4856b0646be5dfad4ddc53e9,
        type: 3}
    - time: 1.75
      value: {fileID: 6978326488160372093, guid: 36977bec4856b0646be5dfad4ddc53e9,
        type: 3}
    - time: 1.8333334
      value: {fileID: -8904692227713536097, guid: 36977bec4856b0646be5dfad4ddc53e9,
        type: 3}
    - time: 1.9166666
      value: {fileID: 5122327118931827206, guid: 36977bec4856b0646be5dfad4ddc53e9,
        type: 3}
    - time: 2
      value: {fileID: -8974144476219739985, guid: 36977bec4856b0646be5dfad4ddc53e9,
        type: 3}
    - time: 2.0833333
      value: {fileID: -7303573700111603301, guid: 36977bec4856b0646be5dfad4ddc53e9,
        type: 3}
    - time: 2.1666667
      value: {fileID: -7425578785507103869, guid: 36977bec4856b0646be5dfad4ddc53e9,
        type: 3}
    - time: 2.25
      value: {fileID: -633677833111298426, guid: 36977bec4856b0646be5dfad4ddc53e9,
        type: 3}
    - time: 2.3333333
      value: {fileID: 5857797828263478468, guid: 36977bec4856b0646be5dfad4ddc53e9,
        type: 3}
    - time: 2.4166667
      value: {fileID: -3319392826324351532, guid: 36977bec4856b0646be5dfad4ddc53e9,
        type: 3}
    - time: 2.5
      value: {fileID: -2656484846766923554, guid: 36977bec4856b0646be5dfad4ddc53e9,
        type: 3}
    - time: 2.5833333
      value: {fileID: 4047149632739445126, guid: 36977bec4856b0646be5dfad4ddc53e9,
        type: 3}
    - time: 2.6666667
      value: {fileID: -473973522895032025, guid: 36977bec4856b0646be5dfad4ddc53e9,
        type: 3}
    - time: 2.75
      value: {fileID: 2192247175110029310, guid: 36977bec4856b0646be5dfad4ddc53e9,
        type: 3}
    - time: 2.8333333
      value: {fileID: 221595156899942256, guid: 36977bec4856b0646be5dfad4ddc53e9,
        type: 3}
    - time: 2.9166667
      value: {fileID: 5170857920749646023, guid: 36977bec4856b0646be5dfad4ddc53e9,
        type: 3}
    - time: 3
      value: {fileID: -323576740963146917, guid: 36977bec4856b0646be5dfad4ddc53e9,
        type: 3}
    - time: 3.0833333
      value: {fileID: 8595571566864511351, guid: 36977bec4856b0646be5dfad4ddc53e9,
        type: 3}
    - time: 3.1666667
      value: {fileID: 2669400082295251573, guid: 36977bec4856b0646be5dfad4ddc53e9,
        type: 3}
    - time: 3.25
      value: {fileID: -6558730930340850364, guid: 36977bec4856b0646be5dfad4ddc53e9,
        type: 3}
    - time: 3.3333333
      value: {fileID: 1806088107524846126, guid: 36977bec4856b0646be5dfad4ddc53e9,
        type: 3}
    - time: 3.4166667
      value: {fileID: 6489038114887322324, guid: 36977bec4856b0646be5dfad4ddc53e9,
        type: 3}
    - time: 3.5
      value: {fileID: -2718699059958643042, guid: 36977bec4856b0646be5dfad4ddc53e9,
        type: 3}
    - time: 3.5833333
      value: {fileID: -5668092124477591995, guid: 36977bec4856b0646be5dfad4ddc53e9,
        type: 3}
    - time: 3.6666667
      value: {fileID: 8017700117770831648, guid: 36977bec4856b0646be5dfad4ddc53e9,
        type: 3}
    - time: 3.75
      value: {fileID: -6532858143039244997, guid: 36977bec4856b0646be5dfad4ddc53e9,
        type: 3}
    - time: 3.8333333
      value: {fileID: -6462139516993303976, guid: 36977bec4856b0646be5dfad4ddc53e9,
        type: 3}
    - time: 3.9166667
      value: {fileID: 8472962678389472854, guid: 36977bec4856b0646be5dfad4ddc53e9,
        type: 3}
    - time: 4
      value: {fileID: -5671376143960502427, guid: 36977bec4856b0646be5dfad4ddc53e9,
        type: 3}
    - time: 4.0833335
      value: {fileID: 7776301876632754548, guid: 36977bec4856b0646be5dfad4ddc53e9,
        type: 3}
    - time: 4.1666665
      value: {fileID: -443695282500215115, guid: 36977bec4856b0646be5dfad4ddc53e9,
        type: 3}
    - time: 4.25
      value: {fileID: 3448983286148509626, guid: 36977bec4856b0646be5dfad4ddc53e9,
        type: 3}
    - time: 4.3333335
      value: {fileID: 6268373032674106192, guid: 36977bec4856b0646be5dfad4ddc53e9,
        type: 3}
    - time: 4.4166665
      value: {fileID: -948324644225652910, guid: 36977bec4856b0646be5dfad4ddc53e9,
        type: 3}
    - time: 4.5
      value: {fileID: 6971242369091297377, guid: 36977bec4856b0646be5dfad4ddc53e9,
        type: 3}
    - time: 4.5833335
      value: {fileID: 5042209730087208223, guid: 36977bec4856b0646be5dfad4ddc53e9,
        type: 3}
    - time: 4.6666665
      value: {fileID: 818927858002642032, guid: 36977bec4856b0646be5dfad4ddc53e9,
        type: 3}
    - time: 4.75
      value: {fileID: 6993589088117510029, guid: 36977bec4856b0646be5dfad4ddc53e9,
        type: 3}
    - time: 4.8333335
      value: {fileID: 2666250909387811580, guid: 36977bec4856b0646be5dfad4ddc53e9,
        type: 3}
    - time: 4.9166665
      value: {fileID: -7166442816078409829, guid: 36977bec4856b0646be5dfad4ddc53e9,
        type: 3}
    - time: 5
      value: {fileID: -8737724802757848377, guid: 36977bec4856b0646be5dfad4ddc53e9,
        type: 3}
    - time: 5.0833335
      value: {fileID: -5191848801693289562, guid: 36977bec4856b0646be5dfad4ddc53e9,
        type: 3}
    - time: 5.1666665
      value: {fileID: 7260511942757320184, guid: 36977bec4856b0646be5dfad4ddc53e9,
        type: 3}
    - time: 5.25
      value: {fileID: -5387112590219825655, guid: 36977bec4856b0646be5dfad4ddc53e9,
        type: 3}
    - time: 5.3333335
      value: {fileID: 8505712139663853871, guid: 36977bec4856b0646be5dfad4ddc53e9,
        type: 3}
    - time: 5.4166665
      value: {fileID: 6772619821386236775, guid: 36977bec4856b0646be5dfad4ddc53e9,
        type: 3}
    - time: 5.5
      value: {fileID: -2237824582586809658, guid: 36977bec4856b0646be5dfad4ddc53e9,
        type: 3}
    - time: 5.5833335
      value: {fileID: 1394354375833794362, guid: 36977bec4856b0646be5dfad4ddc53e9,
        type: 3}
    - time: 5.6666665
      value: {fileID: 3385269779242487704, guid: 36977bec4856b0646be5dfad4ddc53e9,
        type: 3}
    - time: 5.75
      value: {fileID: -4452686465766202625, guid: 36977bec4856b0646be5dfad4ddc53e9,
        type: 3}
    - time: 5.8333335
      value: {fileID: 5964979227890319387, guid: 36977bec4856b0646be5dfad4ddc53e9,
        type: 3}
    attribute: m_Sprite
    path: 
    classID: 212
    script: {fileID: 0}
  m_SampleRate: 12
  m_WrapMode: 0
  m_Bounds:
    m_Center: {x: 0, y: 0, z: 0}
    m_Extent: {x: 0, y: 0, z: 0}
  m_ClipBindingConstant:
    genericBindings:
    - serializedVersion: 2
      path: 0
      attribute: 0
      script: {fileID: 0}
      typeID: 212
      customType: 23
      isPPtrCurve: 1
    pptrCurveMapping:
    - {fileID: 2072427231143691337, guid: 36977bec4856b0646be5dfad4ddc53e9, type: 3}
    - {fileID: 3692254426484346195, guid: 36977bec4856b0646be5dfad4ddc53e9, type: 3}
    - {fileID: -4748861804515989979, guid: 36977bec4856b0646be5dfad4ddc53e9, type: 3}
    - {fileID: 6000221457297074576, guid: 36977bec4856b0646be5dfad4ddc53e9, type: 3}
    - {fileID: 3896590291479660283, guid: 36977bec4856b0646be5dfad4ddc53e9, type: 3}
    - {fileID: -5178187178968982079, guid: 36977bec4856b0646be5dfad4ddc53e9, type: 3}
    - {fileID: 771085020030558845, guid: 36977bec4856b0646be5dfad4ddc53e9, type: 3}
    - {fileID: -3052726830192612626, guid: 36977bec4856b0646be5dfad4ddc53e9, type: 3}
    - {fileID: -8043679910666700551, guid: 36977bec4856b0646be5dfad4ddc53e9, type: 3}
    - {fileID: 7034261333957922207, guid: 36977bec4856b0646be5dfad4ddc53e9, type: 3}
    - {fileID: -7058761566991973735, guid: 36977bec4856b0646be5dfad4ddc53e9, type: 3}
    - {fileID: 5432747336571879507, guid: 36977bec4856b0646be5dfad4ddc53e9, type: 3}
    - {fileID: 8674276885390013568, guid: 36977bec4856b0646be5dfad4ddc53e9, type: 3}
    - {fileID: -7881539117064562641, guid: 36977bec4856b0646be5dfad4ddc53e9, type: 3}
    - {fileID: 8844397728595293574, guid: 36977bec4856b0646be5dfad4ddc53e9, type: 3}
    - {fileID: -410416730141453683, guid: 36977bec4856b0646be5dfad4ddc53e9, type: 3}
    - {fileID: -3971466526514624352, guid: 36977bec4856b0646be5dfad4ddc53e9, type: 3}
    - {fileID: 346156652232912805, guid: 36977bec4856b0646be5dfad4ddc53e9, type: 3}
    - {fileID: 437527424991158530, guid: 36977bec4856b0646be5dfad4ddc53e9, type: 3}
    - {fileID: -7101808328340426846, guid: 36977bec4856b0646be5dfad4ddc53e9, type: 3}
    - {fileID: 807749392994123841, guid: 36977bec4856b0646be5dfad4ddc53e9, type: 3}
    - {fileID: 6978326488160372093, guid: 36977bec4856b0646be5dfad4ddc53e9, type: 3}
    - {fileID: -8904692227713536097, guid: 36977bec4856b0646be5dfad4ddc53e9, type: 3}
    - {fileID: 5122327118931827206, guid: 36977bec4856b0646be5dfad4ddc53e9, type: 3}
    - {fileID: -8974144476219739985, guid: 36977bec4856b0646be5dfad4ddc53e9, type: 3}
    - {fileID: -7303573700111603301, guid: 36977bec4856b0646be5dfad4ddc53e9, type: 3}
    - {fileID: -7425578785507103869, guid: 36977bec4856b0646be5dfad4ddc53e9, type: 3}
    - {fileID: -633677833111298426, guid: 36977bec4856b0646be5dfad4ddc53e9, type: 3}
    - {fileID: 5857797828263478468, guid: 36977bec4856b0646be5dfad4ddc53e9, type: 3}
    - {fileID: -3319392826324351532, guid: 36977bec4856b0646be5dfad4ddc53e9, type: 3}
    - {fileID: -2656484846766923554, guid: 36977bec4856b0646be5dfad4ddc53e9, type: 3}
    - {fileID: 4047149632739445126, guid: 36977bec4856b0646be5dfad4ddc53e9, type: 3}
    - {fileID: -473973522895032025, guid: 36977bec4856b0646be5dfad4ddc53e9, type: 3}
    - {fileID: 2192247175110029310, guid: 36977bec4856b0646be5dfad4ddc53e9, type: 3}
    - {fileID: 221595156899942256, guid: 36977bec4856b0646be5dfad4ddc53e9, type: 3}
    - {fileID: 5170857920749646023, guid: 36977bec4856b0646be5dfad4ddc53e9, type: 3}
    - {fileID: -323576740963146917, guid: 36977bec4856b0646be5dfad4ddc53e9, type: 3}
    - {fileID: 8595571566864511351, guid: 36977bec4856b0646be5dfad4ddc53e9, type: 3}
    - {fileID: 2669400082295251573, guid: 36977bec4856b0646be5dfad4ddc53e9, type: 3}
    - {fileID: -6558730930340850364, guid: 36977bec4856b0646be5dfad4ddc53e9, type: 3}
    - {fileID: 1806088107524846126, guid: 36977bec4856b0646be5dfad4ddc53e9, type: 3}
    - {fileID: 6489038114887322324, guid: 36977bec4856b0646be5dfad4ddc53e9, type: 3}
    - {fileID: -2718699059958643042, guid: 36977bec4856b0646be5dfad4ddc53e9, type: 3}
    - {fileID: -5668092124477591995, guid: 36977bec4856b0646be5dfad4ddc53e9, type: 3}
    - {fileID: 8017700117770831648, guid: 36977bec4856b0646be5dfad4ddc53e9, type: 3}
    - {fileID: -6532858143039244997, guid: 36977bec4856b0646be5dfad4ddc53e9, type: 3}
    - {fileID: -6462139516993303976, guid: 36977bec4856b0646be5dfad4ddc53e9, type: 3}
    - {fileID: 8472962678389472854, guid: 36977bec4856b0646be5dfad4ddc53e9, type: 3}
    - {fileID: -5671376143960502427, guid: 36977bec4856b0646be5dfad4ddc53e9, type: 3}
    - {fileID: 7776301876632754548, guid: 36977bec4856b0646be5dfad4ddc53e9, type: 3}
    - {fileID: -443695282500215115, guid: 36977bec4856b0646be5dfad4ddc53e9, type: 3}
    - {fileID: 3448983286148509626, guid: 36977bec4856b0646be5dfad4ddc53e9, type: 3}
    - {fileID: 6268373032674106192, guid: 36977bec4856b0646be5dfad4ddc53e9, type: 3}
    - {fileID: -948324644225652910, guid: 36977bec4856b0646be5dfad4ddc53e9, type: 3}
    - {fileID: 6971242369091297377, guid: 36977bec4856b0646be5dfad4ddc53e9, type: 3}
    - {fileID: 5042209730087208223, guid: 36977bec4856b0646be5dfad4ddc53e9, type: 3}
    - {fileID: 818927858002642032, guid: 36977bec4856b0646be5dfad4ddc53e9, type: 3}
    - {fileID: 6993589088117510029, guid: 36977bec4856b0646be5dfad4ddc53e9, type: 3}
    - {fileID: 2666250909387811580, guid: 36977bec4856b0646be5dfad4ddc53e9, type: 3}
    - {fileID: -7166442816078409829, guid: 36977bec4856b0646be5dfad4ddc53e9, type: 3}
    - {fileID: -8737724802757848377, guid: 36977bec4856b0646be5dfad4ddc53e9, type: 3}
    - {fileID: -5191848801693289562, guid: 36977bec4856b0646be5dfad4ddc53e9, type: 3}
    - {fileID: 7260511942757320184, guid: 36977bec4856b0646be5dfad4ddc53e9, type: 3}
    - {fileID: -5387112590219825655, guid: 36977bec4856b0646be5dfad4ddc53e9, type: 3}
    - {fileID: 8505712139663853871, guid: 36977bec4856b0646be5dfad4ddc53e9, type: 3}
    - {fileID: 6772619821386236775, guid: 36977bec4856b0646be5dfad4ddc53e9, type: 3}
    - {fileID: -2237824582586809658, guid: 36977bec4856b0646be5dfad4ddc53e9, type: 3}
    - {fileID: 1394354375833794362, guid: 36977bec4856b0646be5dfad4ddc53e9, type: 3}
    - {fileID: 3385269779242487704, guid: 36977bec4856b0646be5dfad4ddc53e9, type: 3}
    - {fileID: -4452686465766202625, guid: 36977bec4856b0646be5dfad4ddc53e9, type: 3}
    - {fileID: 5964979227890319387, guid: 36977bec4856b0646be5dfad4ddc53e9, type: 3}
  m_AnimationClipSettings:
    serializedVersion: 2
    m_AdditiveReferencePoseClip: {fileID: 0}
    m_AdditiveReferencePoseTime: 0
    m_StartTime: 0
    m_StopTime: 5.916667
    m_OrientationOffsetY: 0
    m_Level: 0
    m_CycleOffset: 0
    m_HasAdditiveReferencePose: 0
    m_LoopTime: 1
    m_LoopBlend: 0
    m_LoopBlendOrientation: 0
    m_LoopBlendPositionY: 0
    m_LoopBlendPositionXZ: 0
    m_KeepOriginalOrientation: 0
    m_KeepOriginalPositionY: 1
    m_KeepOriginalPositionXZ: 0
    m_HeightFromFeet: 0
    m_Mirror: 0
  m_EditorCurves: []
  m_EulerEditorCurves: []
  m_HasGenericRootTransform: 0
  m_HasMotionFloatCurves: 0
  m_Events: []
