%YAML 1.1
%TAG !u! tag:unity3d.com,2011:
--- !u!74 &7400000
AnimationClip:
  m_ObjectHideFlags: 0
  m_CorrespondingSourceObject: {fileID: 0}
  m_PrefabInstance: {fileID: 0}
  m_PrefabAsset: {fileID: 0}
  m_Name: pizza
  serializedVersion: 6
  m_Legacy: 0
  m_Compressed: 0
  m_UseHighQualityCurve: 1
  m_RotationCurves: []
  m_CompressedRotationCurves: []
  m_EulerCurves: []
  m_PositionCurves: []
  m_ScaleCurves: []
  m_FloatCurves: []
  m_PPtrCurves:
  - curve:
    - time: 0
      value: {fileID: -6444940296795206775, guid: 30c4b5566b27a6548a8f15be8ab7fd28,
        type: 3}
    - time: 0.083333336
      value: {fileID: 5667847003176893529, guid: 30c4b5566b27a6548a8f15be8ab7fd28,
        type: 3}
    - time: 0.16666667
      value: {fileID: 4501626643336248173, guid: 30c4b5566b27a6548a8f15be8ab7fd28,
        type: 3}
    - time: 0.25
      value: {fileID: 3802540608395075317, guid: 30c4b5566b27a6548a8f15be8ab7fd28,
        type: 3}
    - time: 0.33333334
      value: {fileID: 1605280486352939776, guid: 30c4b5566b27a6548a8f15be8ab7fd28,
        type: 3}
    - time: 0.41666666
      value: {fileID: 1220622393648480946, guid: 30c4b5566b27a6548a8f15be8ab7fd28,
        type: 3}
    - time: 0.5
      value: {fileID: -2662713088602099033, guid: 30c4b5566b27a6548a8f15be8ab7fd28,
        type: 3}
    - time: 0.5833333
      value: {fileID: -4637233412531959190, guid: 30c4b5566b27a6548a8f15be8ab7fd28,
        type: 3}
    - time: 0.6666667
      value: {fileID: -3341737863928255655, guid: 30c4b5566b27a6548a8f15be8ab7fd28,
        type: 3}
    - time: 0.75
      value: {fileID: 7099307736325897240, guid: 30c4b5566b27a6548a8f15be8ab7fd28,
        type: 3}
    - time: 0.8333333
      value: {fileID: -8534689749353140836, guid: 30c4b5566b27a6548a8f15be8ab7fd28,
        type: 3}
    - time: 0.9166667
      value: {fileID: 3887359484128057361, guid: 30c4b5566b27a6548a8f15be8ab7fd28,
        type: 3}
    - time: 1
      value: {fileID: -1578280432604279732, guid: 30c4b5566b27a6548a8f15be8ab7fd28,
        type: 3}
    - time: 1.0833334
      value: {fileID: 1742205789185335817, guid: 30c4b5566b27a6548a8f15be8ab7fd28,
        type: 3}
    - time: 1.1666666
      value: {fileID: -4739326826567671443, guid: 30c4b5566b27a6548a8f15be8ab7fd28,
        type: 3}
    - time: 1.25
      value: {fileID: -2320943739310265085, guid: 30c4b5566b27a6548a8f15be8ab7fd28,
        type: 3}
    - time: 1.3333334
      value: {fileID: -6527733861975600277, guid: 30c4b5566b27a6548a8f15be8ab7fd28,
        type: 3}
    - time: 1.4166666
      value: {fileID: -2907363612021993935, guid: 30c4b5566b27a6548a8f15be8ab7fd28,
        type: 3}
    - time: 1.5
      value: {fileID: -4216787566812005417, guid: 30c4b5566b27a6548a8f15be8ab7fd28,
        type: 3}
    - time: 1.5833334
      value: {fileID: 8315330692540002569, guid: 30c4b5566b27a6548a8f15be8ab7fd28,
        type: 3}
    - time: 1.6666666
      value: {fileID: 726432775972231189, guid: 30c4b5566b27a6548a8f15be8ab7fd28,
        type: 3}
    - time: 1.75
      value: {fileID: -8340233495551767994, guid: 30c4b5566b27a6548a8f15be8ab7fd28,
        type: 3}
    - time: 1.8333334
      value: {fileID: 7554524734884317492, guid: 30c4b5566b27a6548a8f15be8ab7fd28,
        type: 3}
    - time: 1.9166666
      value: {fileID: -1937330070655020117, guid: 30c4b5566b27a6548a8f15be8ab7fd28,
        type: 3}
    - time: 2
      value: {fileID: 5774056888920034800, guid: 30c4b5566b27a6548a8f15be8ab7fd28,
        type: 3}
    attribute: m_Sprite
    path: 
    classID: 212
    script: {fileID: 0}
  m_SampleRate: 12
  m_WrapMode: 0
  m_Bounds:
    m_Center: {x: 0, y: 0, z: 0}
    m_Extent: {x: 0, y: 0, z: 0}
  m_ClipBindingConstant:
    genericBindings:
    - serializedVersion: 2
      path: 0
      attribute: 0
      script: {fileID: 0}
      typeID: 212
      customType: 23
      isPPtrCurve: 1
    pptrCurveMapping:
    - {fileID: -6444940296795206775, guid: 30c4b5566b27a6548a8f15be8ab7fd28, type: 3}
    - {fileID: 5667847003176893529, guid: 30c4b5566b27a6548a8f15be8ab7fd28, type: 3}
    - {fileID: 4501626643336248173, guid: 30c4b5566b27a6548a8f15be8ab7fd28, type: 3}
    - {fileID: 3802540608395075317, guid: 30c4b5566b27a6548a8f15be8ab7fd28, type: 3}
    - {fileID: 1605280486352939776, guid: 30c4b5566b27a6548a8f15be8ab7fd28, type: 3}
    - {fileID: 1220622393648480946, guid: 30c4b5566b27a6548a8f15be8ab7fd28, type: 3}
    - {fileID: -2662713088602099033, guid: 30c4b5566b27a6548a8f15be8ab7fd28, type: 3}
    - {fileID: -4637233412531959190, guid: 30c4b5566b27a6548a8f15be8ab7fd28, type: 3}
    - {fileID: -3341737863928255655, guid: 30c4b5566b27a6548a8f15be8ab7fd28, type: 3}
    - {fileID: 7099307736325897240, guid: 30c4b5566b27a6548a8f15be8ab7fd28, type: 3}
    - {fileID: -8534689749353140836, guid: 30c4b5566b27a6548a8f15be8ab7fd28, type: 3}
    - {fileID: 3887359484128057361, guid: 30c4b5566b27a6548a8f15be8ab7fd28, type: 3}
    - {fileID: -1578280432604279732, guid: 30c4b5566b27a6548a8f15be8ab7fd28, type: 3}
    - {fileID: 1742205789185335817, guid: 30c4b5566b27a6548a8f15be8ab7fd28, type: 3}
    - {fileID: -4739326826567671443, guid: 30c4b5566b27a6548a8f15be8ab7fd28, type: 3}
    - {fileID: -2320943739310265085, guid: 30c4b5566b27a6548a8f15be8ab7fd28, type: 3}
    - {fileID: -6527733861975600277, guid: 30c4b5566b27a6548a8f15be8ab7fd28, type: 3}
    - {fileID: -2907363612021993935, guid: 30c4b5566b27a6548a8f15be8ab7fd28, type: 3}
    - {fileID: -4216787566812005417, guid: 30c4b5566b27a6548a8f15be8ab7fd28, type: 3}
    - {fileID: 8315330692540002569, guid: 30c4b5566b27a6548a8f15be8ab7fd28, type: 3}
    - {fileID: 726432775972231189, guid: 30c4b5566b27a6548a8f15be8ab7fd28, type: 3}
    - {fileID: -8340233495551767994, guid: 30c4b5566b27a6548a8f15be8ab7fd28, type: 3}
    - {fileID: 7554524734884317492, guid: 30c4b5566b27a6548a8f15be8ab7fd28, type: 3}
    - {fileID: -1937330070655020117, guid: 30c4b5566b27a6548a8f15be8ab7fd28, type: 3}
    - {fileID: 5774056888920034800, guid: 30c4b5566b27a6548a8f15be8ab7fd28, type: 3}
  m_AnimationClipSettings:
    serializedVersion: 2
    m_AdditiveReferencePoseClip: {fileID: 0}
    m_AdditiveReferencePoseTime: 0
    m_StartTime: 0
    m_StopTime: 2.0833333
    m_OrientationOffsetY: 0
    m_Level: 0
    m_CycleOffset: 0
    m_HasAdditiveReferencePose: 0
    m_LoopTime: 1
    m_LoopBlend: 0
    m_LoopBlendOrientation: 0
    m_LoopBlendPositionY: 0
    m_LoopBlendPositionXZ: 0
    m_KeepOriginalOrientation: 0
    m_KeepOriginalPositionY: 1
    m_KeepOriginalPositionXZ: 0
    m_HeightFromFeet: 0
    m_Mirror: 0
  m_EditorCurves: []
  m_EulerEditorCurves: []
  m_HasGenericRootTransform: 0
  m_HasMotionFloatCurves: 0
  m_Events: []
