%YAML 1.1
%TAG !u! tag:unity3d.com,2011:
--- !u!74 &7400000
AnimationClip:
  m_ObjectHideFlags: 0
  m_CorrespondingSourceObject: {fileID: 0}
  m_PrefabInstance: {fileID: 0}
  m_PrefabAsset: {fileID: 0}
  m_Name: solemalese
  serializedVersion: 6
  m_Legacy: 0
  m_Compressed: 0
  m_UseHighQualityCurve: 1
  m_RotationCurves: []
  m_CompressedRotationCurves: []
  m_EulerCurves: []
  m_PositionCurves: []
  m_ScaleCurves: []
  m_FloatCurves: []
  m_PPtrCurves:
  - curve:
    - time: 0
      value: {fileID: 7228944270647029430, guid: b2fe79a4f2a7e5d4b99fdab1a9127dd2,
        type: 3}
    - time: 0.083333336
      value: {fileID: -7193830164396215765, guid: b2fe79a4f2a7e5d4b99fdab1a9127dd2,
        type: 3}
    - time: 0.16666667
      value: {fileID: 8167817160633008083, guid: b2fe79a4f2a7e5d4b99fdab1a9127dd2,
        type: 3}
    - time: 0.25
      value: {fileID: -5845205597586859646, guid: b2fe79a4f2a7e5d4b99fdab1a9127dd2,
        type: 3}
    - time: 0.33333334
      value: {fileID: -4352595977735779034, guid: b2fe79a4f2a7e5d4b99fdab1a9127dd2,
        type: 3}
    - time: 0.41666666
      value: {fileID: -1615064738718300674, guid: b2fe79a4f2a7e5d4b99fdab1a9127dd2,
        type: 3}
    - time: 0.5
      value: {fileID: -5942397585733784521, guid: b2fe79a4f2a7e5d4b99fdab1a9127dd2,
        type: 3}
    - time: 0.5833333
      value: {fileID: 1985872296603138280, guid: b2fe79a4f2a7e5d4b99fdab1a9127dd2,
        type: 3}
    - time: 0.6666667
      value: {fileID: 4402307654436182136, guid: b2fe79a4f2a7e5d4b99fdab1a9127dd2,
        type: 3}
    - time: 0.75
      value: {fileID: -3849732607806855092, guid: b2fe79a4f2a7e5d4b99fdab1a9127dd2,
        type: 3}
    - time: 0.8333333
      value: {fileID: 7997507058017511899, guid: b2fe79a4f2a7e5d4b99fdab1a9127dd2,
        type: 3}
    - time: 0.9166667
      value: {fileID: 6329558270077066798, guid: b2fe79a4f2a7e5d4b99fdab1a9127dd2,
        type: 3}
    - time: 1
      value: {fileID: 1939390604482100284, guid: b2fe79a4f2a7e5d4b99fdab1a9127dd2,
        type: 3}
    - time: 1.0833334
      value: {fileID: 1637247473940721608, guid: b2fe79a4f2a7e5d4b99fdab1a9127dd2,
        type: 3}
    - time: 1.1666666
      value: {fileID: -8113227005151609531, guid: b2fe79a4f2a7e5d4b99fdab1a9127dd2,
        type: 3}
    - time: 1.25
      value: {fileID: 4989936777883258508, guid: b2fe79a4f2a7e5d4b99fdab1a9127dd2,
        type: 3}
    - time: 1.3333334
      value: {fileID: -7654148842897975972, guid: b2fe79a4f2a7e5d4b99fdab1a9127dd2,
        type: 3}
    - time: 1.4166666
      value: {fileID: 3656527436141850707, guid: b2fe79a4f2a7e5d4b99fdab1a9127dd2,
        type: 3}
    - time: 1.5
      value: {fileID: -8839601179767139876, guid: b2fe79a4f2a7e5d4b99fdab1a9127dd2,
        type: 3}
    - time: 1.5833334
      value: {fileID: 9072017292761391109, guid: b2fe79a4f2a7e5d4b99fdab1a9127dd2,
        type: 3}
    - time: 1.6666666
      value: {fileID: -887752976127354263, guid: b2fe79a4f2a7e5d4b99fdab1a9127dd2,
        type: 3}
    - time: 1.75
      value: {fileID: -3575010071457475566, guid: b2fe79a4f2a7e5d4b99fdab1a9127dd2,
        type: 3}
    - time: 1.8333334
      value: {fileID: -667351941790196876, guid: b2fe79a4f2a7e5d4b99fdab1a9127dd2,
        type: 3}
    - time: 1.9166666
      value: {fileID: -7452430739306609008, guid: b2fe79a4f2a7e5d4b99fdab1a9127dd2,
        type: 3}
    - time: 2
      value: {fileID: -2185219084462180569, guid: b2fe79a4f2a7e5d4b99fdab1a9127dd2,
        type: 3}
    - time: 2.0833333
      value: {fileID: 5500328597073907944, guid: b2fe79a4f2a7e5d4b99fdab1a9127dd2,
        type: 3}
    - time: 2.1666667
      value: {fileID: 3899316701398999159, guid: b2fe79a4f2a7e5d4b99fdab1a9127dd2,
        type: 3}
    - time: 2.25
      value: {fileID: 5625526011724057023, guid: b2fe79a4f2a7e5d4b99fdab1a9127dd2,
        type: 3}
    - time: 2.3333333
      value: {fileID: 2632669626514514989, guid: b2fe79a4f2a7e5d4b99fdab1a9127dd2,
        type: 3}
    - time: 2.4166667
      value: {fileID: 1849531607843511924, guid: b2fe79a4f2a7e5d4b99fdab1a9127dd2,
        type: 3}
    - time: 2.5
      value: {fileID: -6151126302277764904, guid: b2fe79a4f2a7e5d4b99fdab1a9127dd2,
        type: 3}
    - time: 2.5833333
      value: {fileID: 5983977495723601050, guid: b2fe79a4f2a7e5d4b99fdab1a9127dd2,
        type: 3}
    - time: 2.6666667
      value: {fileID: -2489248866716360184, guid: b2fe79a4f2a7e5d4b99fdab1a9127dd2,
        type: 3}
    attribute: m_Sprite
    path: 
    classID: 212
    script: {fileID: 0}
  m_SampleRate: 12
  m_WrapMode: 0
  m_Bounds:
    m_Center: {x: 0, y: 0, z: 0}
    m_Extent: {x: 0, y: 0, z: 0}
  m_ClipBindingConstant:
    genericBindings:
    - serializedVersion: 2
      path: 0
      attribute: 0
      script: {fileID: 0}
      typeID: 212
      customType: 23
      isPPtrCurve: 1
    pptrCurveMapping:
    - {fileID: 7228944270647029430, guid: b2fe79a4f2a7e5d4b99fdab1a9127dd2, type: 3}
    - {fileID: -7193830164396215765, guid: b2fe79a4f2a7e5d4b99fdab1a9127dd2, type: 3}
    - {fileID: 8167817160633008083, guid: b2fe79a4f2a7e5d4b99fdab1a9127dd2, type: 3}
    - {fileID: -5845205597586859646, guid: b2fe79a4f2a7e5d4b99fdab1a9127dd2, type: 3}
    - {fileID: -4352595977735779034, guid: b2fe79a4f2a7e5d4b99fdab1a9127dd2, type: 3}
    - {fileID: -1615064738718300674, guid: b2fe79a4f2a7e5d4b99fdab1a9127dd2, type: 3}
    - {fileID: -5942397585733784521, guid: b2fe79a4f2a7e5d4b99fdab1a9127dd2, type: 3}
    - {fileID: 1985872296603138280, guid: b2fe79a4f2a7e5d4b99fdab1a9127dd2, type: 3}
    - {fileID: 4402307654436182136, guid: b2fe79a4f2a7e5d4b99fdab1a9127dd2, type: 3}
    - {fileID: -3849732607806855092, guid: b2fe79a4f2a7e5d4b99fdab1a9127dd2, type: 3}
    - {fileID: 7997507058017511899, guid: b2fe79a4f2a7e5d4b99fdab1a9127dd2, type: 3}
    - {fileID: 6329558270077066798, guid: b2fe79a4f2a7e5d4b99fdab1a9127dd2, type: 3}
    - {fileID: 1939390604482100284, guid: b2fe79a4f2a7e5d4b99fdab1a9127dd2, type: 3}
    - {fileID: 1637247473940721608, guid: b2fe79a4f2a7e5d4b99fdab1a9127dd2, type: 3}
    - {fileID: -8113227005151609531, guid: b2fe79a4f2a7e5d4b99fdab1a9127dd2, type: 3}
    - {fileID: 4989936777883258508, guid: b2fe79a4f2a7e5d4b99fdab1a9127dd2, type: 3}
    - {fileID: -7654148842897975972, guid: b2fe79a4f2a7e5d4b99fdab1a9127dd2, type: 3}
    - {fileID: 3656527436141850707, guid: b2fe79a4f2a7e5d4b99fdab1a9127dd2, type: 3}
    - {fileID: -8839601179767139876, guid: b2fe79a4f2a7e5d4b99fdab1a9127dd2, type: 3}
    - {fileID: 9072017292761391109, guid: b2fe79a4f2a7e5d4b99fdab1a9127dd2, type: 3}
    - {fileID: -887752976127354263, guid: b2fe79a4f2a7e5d4b99fdab1a9127dd2, type: 3}
    - {fileID: -3575010071457475566, guid: b2fe79a4f2a7e5d4b99fdab1a9127dd2, type: 3}
    - {fileID: -667351941790196876, guid: b2fe79a4f2a7e5d4b99fdab1a9127dd2, type: 3}
    - {fileID: -7452430739306609008, guid: b2fe79a4f2a7e5d4b99fdab1a9127dd2, type: 3}
    - {fileID: -2185219084462180569, guid: b2fe79a4f2a7e5d4b99fdab1a9127dd2, type: 3}
    - {fileID: 5500328597073907944, guid: b2fe79a4f2a7e5d4b99fdab1a9127dd2, type: 3}
    - {fileID: 3899316701398999159, guid: b2fe79a4f2a7e5d4b99fdab1a9127dd2, type: 3}
    - {fileID: 5625526011724057023, guid: b2fe79a4f2a7e5d4b99fdab1a9127dd2, type: 3}
    - {fileID: 2632669626514514989, guid: b2fe79a4f2a7e5d4b99fdab1a9127dd2, type: 3}
    - {fileID: 1849531607843511924, guid: b2fe79a4f2a7e5d4b99fdab1a9127dd2, type: 3}
    - {fileID: -6151126302277764904, guid: b2fe79a4f2a7e5d4b99fdab1a9127dd2, type: 3}
    - {fileID: 5983977495723601050, guid: b2fe79a4f2a7e5d4b99fdab1a9127dd2, type: 3}
    - {fileID: -2489248866716360184, guid: b2fe79a4f2a7e5d4b99fdab1a9127dd2, type: 3}
  m_AnimationClipSettings:
    serializedVersion: 2
    m_AdditiveReferencePoseClip: {fileID: 0}
    m_AdditiveReferencePoseTime: 0
    m_StartTime: 0
    m_StopTime: 2.75
    m_OrientationOffsetY: 0
    m_Level: 0
    m_CycleOffset: 0
    m_HasAdditiveReferencePose: 0
    m_LoopTime: 1
    m_LoopBlend: 0
    m_LoopBlendOrientation: 0
    m_LoopBlendPositionY: 0
    m_LoopBlendPositionXZ: 0
    m_KeepOriginalOrientation: 0
    m_KeepOriginalPositionY: 1
    m_KeepOriginalPositionXZ: 0
    m_HeightFromFeet: 0
    m_Mirror: 0
  m_EditorCurves: []
  m_EulerEditorCurves: []
  m_HasGenericRootTransform: 0
  m_HasMotionFloatCurves: 0
  m_Events: []
