%YAML 1.1
%TAG !u! tag:unity3d.com,2011:
--- !u!114 &11400000
MonoBehaviour:
  m_ObjectHideFlags: 0
  m_CorrespondingSourceObject: {fileID: 0}
  m_PrefabInstance: {fileID: 0}
  m_PrefabAsset: {fileID: 0}
  m_GameObject: {fileID: 0}
  m_Enabled: 1
  m_EditorHideFlags: 0
  m_Script: {fileID: 11500000, guid: d082c21ef38dd774c8cb1683997133d9, type: 3}
  m_Name: AbitanteDegliArmadi3
  m_EditorClassIdentifier: 
  cod: 3
  messaggio: "Hola ?Como estas? Yo muy bien ?y tu? Sto imparando lo spagnolo, ho
    notato che sono bravo.  Per\xF2! Certo che questo \xE8 proprio un mondo assurdo
    non \xE8 vero, compagno di abitazione? Ne succedono, ogni giorno, delle belle.
    A proposito, stamattina sentivo odore di bruciato provenire dalla cucina, spero
    che tu non abbia danneggiato qualche utile strumento o, peggio, che non ti sia
    fatto del male. Comunque ora torno a scrivere il copione del mio film.  Con amicizia
    da Tutto Buioqui, il tizio che abita nel tuo armadio.  P.S. Ti ho accennato che
    sono bravo con le lingue straniere, no? Beh, ci sono lingue che non riesco proprio
    a capire e questo sito ne \xE8 pieno. <link=\"abc\">GiocoLingueCheCambiano</link>
    Fai attenzione potresti perdere del cash, ma potresti anche guadagnarne!"
  risposte: []
  eventiRisposta:
  - ArmadiWin
  - ArmadiLoose
  indirizzo: LegnoChiodiMartello@mail.tt
  oggetto: Abitanti degli armadi
  isMinigameAllegato: 1
  minigameAllegato: 999
  nextMail:
  - {fileID: 11400000, guid: 04a04c28830135f4d9c239714c650bd4, type: 2}
  - {fileID: 11400000, guid: 9ef0fadcbc0004343835ae64dc5b3688, type: 2}
  maxSpawns: 1
