%YAML 1.1
%TAG !u! tag:unity3d.com,2011:
--- !u!114 &11400000
MonoBehaviour:
  m_ObjectHideFlags: 0
  m_CorrespondingSourceObject: {fileID: 0}
  m_PrefabInstance: {fileID: 0}
  m_PrefabAsset: {fileID: 0}
  m_GameObject: {fileID: 0}
  m_Enabled: 1
  m_EditorHideFlags: 0
  m_Script: {fileID: 11500000, guid: d082c21ef38dd774c8cb1683997133d9, type: 3}
  m_Name: AbitanteDegliArmadi6
  m_EditorClassIdentifier: 
  cod: 72
  messaggio: "Heila, mio coinquilino, preferito! Indovina: mi sto trasferendo! Vado
    a vivere nell'armadio di una ragazza che ho conosciuto online, finalmente il
    mio sogno di avere una corista che accompagni le colonne sonore dei miei film
    si avverer\xE0 e diventer\xF2 famoso. Sentirai parlare di me in futuro e io ricorder\xF2
    sempre nel cuore i bei momenti passati assieme (anche se non ci siamo mai visti)."
  risposte:
  - Addio, Tutto Buioqui, ti auguro almeno il successo che ha avuto Sergio Leone!
    Un giorno ci incontreremo e ci berremo qualcosa assieme.
  eventiRisposta: []
  indirizzo: LegnoChiodiMartello@mail.tt
  oggetto: Abitanti degli armadi
  isMinigameAllegato: 0
  minigameAllegato: -1
  nextMail: []
  maxSpawns: 1
