%YAML 1.1
%TAG !u! tag:unity3d.com,2011:
--- !u!114 &11400000
MonoBehaviour:
  m_ObjectHideFlags: 0
  m_CorrespondingSourceObject: {fileID: 0}
  m_PrefabInstance: {fileID: 0}
  m_PrefabAsset: {fileID: 0}
  m_GameObject: {fileID: 0}
  m_Enabled: 1
  m_EditorHideFlags: 0
  m_Script: {fileID: 11500000, guid: d082c21ef38dd774c8cb1683997133d9, type: 3}
  m_Name: AbitanteDegliArmadi2
  m_EditorClassIdentifier: 
  cod: 2
  messaggio: 'Mi piace come ragioni. Mi chiamo Tutto Buioqui, sono un regista. Ho
    mangiato io le tortillas che avevi lasciato in frigo sabato. Ogni tanto mangio
    i tuoi avanzi per non morire di fame. Se ti serve qualche consiglio su come conciare
    le pelli di lepre fammi un fischio. '
  risposte:
  - Pelli di lepre eh? Va bene, ti ringrazio, Tutto, ci si vede.
  eventiRisposta: []
  indirizzo: LegnoChiodiMartello@mail.tt
  oggetto: Abitanti degli armadi
  isMinigameAllegato: 0
  minigameAllegato: -1
  nextMail:
  - {fileID: 11400000, guid: b0039758d55720a4b9fa1fb90daf48e4, type: 2}
  maxSpawns: 1
