%YAML 1.1
%TAG !u! tag:unity3d.com,2011:
--- !u!114 &11400000
MonoBehaviour:
  m_ObjectHideFlags: 0
  m_CorrespondingSourceObject: {fileID: 0}
  m_PrefabInstance: {fileID: 0}
  m_PrefabAsset: {fileID: 0}
  m_GameObject: {fileID: 0}
  m_Enabled: 1
  m_EditorHideFlags: 0
  m_Script: {fileID: 11500000, guid: d082c21ef38dd774c8cb1683997133d9, type: 3}
  m_Name: BobCassiere3
  m_EditorClassIdentifier: 
  cod: 10
  messaggio: "Heila amico! Come butta? Hai mai sentito dire da qualcuno \"come butta\"?
    Io no, comunque ti mando il link per un sito che vende zucchine ottime, ancora
    pi\xF9 buone di quelle dell'altro sito! Sembra assurdo, ma ti dico che \xE8 cos\xEC!
    <link=\"abc\">BastaseghineComprazucchine</link> Fidati, poi mi dici."
  risposte:
  - Ok, grazie Bob.
  eventiRisposta:
  - BobArrabbiato
  indirizzo: Bob@supermarket.bob
  oggetto: Butta un occhio qua!
  isMinigameAllegato: 1
  minigameAllegato: 999
  nextMail:
  - {fileID: 11400000, guid: 397691b223ba37e4b8d7103fa7efadfe, type: 2}
  - {fileID: 11400000, guid: f7c43c077093022498ae0d58172637ea, type: 2}
  maxSpawns: 1
