%YAML 1.1
%TAG !u! tag:unity3d.com,2011:
--- !u!114 &11400000
MonoBehaviour:
  m_ObjectHideFlags: 0
  m_CorrespondingSourceObject: {fileID: 0}
  m_PrefabInstance: {fileID: 0}
  m_PrefabAsset: {fileID: 0}
  m_GameObject: {fileID: 0}
  m_Enabled: 1
  m_EditorHideFlags: 0
  m_Script: {fileID: 11500000, guid: d082c21ef38dd774c8cb1683997133d9, type: 3}
  m_Name: GuidoDibbari9
  m_EditorClassIdentifier: 
  cod: 93
  messaggio: "Ho trovato! Ho hackerato il sistema con un semplice programma da quattro
    soldi, questi faggiani non sono cos\xEC furbi come sembrano.  Invia questo codice
    a quell\u2019indirizzo e vedrai che andr\xE0 tutto bene:  Remove.subscription.killerIA"
  risposte:
  - 
  eventiRisposta: []
  indirizzo: idrive_frombari@meh.com
  oggetto: SIFV
  isMinigameAllegato: 0
  minigameAllegato: -1
  nextMail: []
  maxSpawns: 1
