%YAML 1.1
%TAG !u! tag:unity3d.com,2011:
--- !u!114 &11400000
MonoBehaviour:
  m_ObjectHideFlags: 0
  m_CorrespondingSourceObject: {fileID: 0}
  m_PrefabInstance: {fileID: 0}
  m_PrefabAsset: {fileID: 0}
  m_GameObject: {fileID: 0}
  m_Enabled: 1
  m_EditorHideFlags: 0
  m_Script: {fileID: 11500000, guid: d082c21ef38dd774c8cb1683997133d9, type: 3}
  m_Name: LapoBrunellozzo4
  m_EditorClassIdentifier: 
  cod: 46
  messaggio: "Invasione zombie nel covo degli alieni!!1!1!!  Cari amici, ieri notte
    si \xE8 verificato un incredibile evento che stravolger\xE0 le nostre vite PER
    SEMPRE!! Uno zombie \xE8 stato abbattuto dall\u2019esercito americano mentre
    tentava di accedere nella segretissima area 51, convinto che l\xEC avrebbe trovato
    un marchingegno alieno in grado di farlo viaggiare nel tempo!  La testimonianza
    ci \xE8 giunta da un nostro inviato che vive segretamente in una grotta scavata
    a mano nei dintorni nell\u2019area, che ha avuto modo di parlare con lo zombie
    e di registrare interamente la vicenda! Questo dimostra che gli zombie esistono
    e vogliono tornare nel passato per uccidere coloro che li hanno uccisi E VENDICARSI
    DEI VIVI!!! E intanto gli alieni che fanno? GUARDANO! Perch\xE9 hanno paura dei
    faggiani!   Per oggi \xE8 tutto amici, a presto."
  risposte: []
  eventiRisposta: []
  indirizzo: Complottiamoci@mail.compl
  oggetto: Mail di news del sito complottista
  isMinigameAllegato: 0
  minigameAllegato: -1
  nextMail: []
  maxSpawns: 1
