%YAML 1.1
%TAG !u! tag:unity3d.com,2011:
--- !u!114 &11400000
MonoBehaviour:
  m_ObjectHideFlags: 0
  m_CorrespondingSourceObject: {fileID: 0}
  m_PrefabInstance: {fileID: 0}
  m_PrefabAsset: {fileID: 0}
  m_GameObject: {fileID: 0}
  m_Enabled: 1
  m_EditorHideFlags: 0
  m_Script: {fileID: 11500000, guid: d082c21ef38dd774c8cb1683997133d9, type: 3}
  m_Name: LapoBrunellozzo1
  m_EditorClassIdentifier: 
  cod: 43
  messaggio: "Salve nobil messere, lo buon giorno la accolga nelle ardite battaglie
    che lo politico spirito ghibellino affronta senza timor de sconfitta. Mi trovai
    la passata notte in una selva oscura, che la casacca mia era smarrita. Ridestato
    da sonno immemore, abbandonato da flebil ricordo fiorentino ormai lontano nella
    storia. In veste di redivivo cavalier la esorto a porre luce su lo mio oscuro
    avvenimento, sicch\xE8 le membra lacerate non trovan medica spiegazione. Lo suo
    recapito mi fu concesso dallo arnese lucente che adopero al fin di invocarla,
    o' messere.  Che la sua epistolare ribattuta sia celere, prima ancor che le ossa
    mie siano cenere.  Con sommo gaudio, Lapo."
  risposte:
  - Scusa ma ho smesso di rispondere agli zombie, brutte esperienze sentimentali
    con ferite ancora aperte.  Non prenderla sul personale.
  eventiRisposta: []
  indirizzo: nonbello_ma_ghibello@impero.fi
  oggetto: 
  isMinigameAllegato: 0
  minigameAllegato: -1
  nextMail:
  - {fileID: 11400000, guid: 4531b194732e32e4ea82ec813e887a77, type: 2}
  maxSpawns: 1
