%YAML 1.1
%TAG !u! tag:unity3d.com,2011:
--- !u!114 &11400000
MonoBehaviour:
  m_ObjectHideFlags: 0
  m_CorrespondingSourceObject: {fileID: 0}
  m_PrefabInstance: {fileID: 0}
  m_PrefabAsset: {fileID: 0}
  m_GameObject: {fileID: 0}
  m_Enabled: 1
  m_EditorHideFlags: 0
  m_Script: {fileID: 11500000, guid: d082c21ef38dd774c8cb1683997133d9, type: 3}
  m_Name: Male6
  m_EditorClassIdentifier: 
  cod: 114
  messaggio: "Ovviamente non avrai n\xE8 potere e n\xE8 ricchezza! PENSI DI ESSERE
    FURBO, INFIDO SCARAFAGIO!! Mai fidarsi di un signore del male! MAI! "
  risposte: []
  eventiRisposta: []
  indirizzo: Cosebbrutte@mail.bad
  oggetto: MORTALE!!!
  isMinigameAllegato: 0
  minigameAllegato: -1
  nextMail: []
  maxSpawns: 1
