%YAML 1.1
%TAG !u! tag:unity3d.com,2011:
--- !u!114 &11400000
MonoBehaviour:
  m_ObjectHideFlags: 0
  m_CorrespondingSourceObject: {fileID: 0}
  m_PrefabInstance: {fileID: 0}
  m_PrefabAsset: {fileID: 0}
  m_GameObject: {fileID: 0}
  m_Enabled: 1
  m_EditorHideFlags: 0
  m_Script: {fileID: 11500000, guid: d082c21ef38dd774c8cb1683997133d9, type: 3}
  m_Name: RaymondHamm4
  m_EditorClassIdentifier: 
  cod: 32
  messaggio: "Questo \xE8 gravissimo! Purtroppo nessuno crede a quello che sta succedendo....
    pensano che siamo pazzi, ma si renderanno conto della verit\xE0 quando sar\xE0
    troppo tardi. Pe ora credo che dovremo cavarcela da soli. Mantienilo a distanza
    ad ogni costo, non toccare nulla di quello che ha toccato lui e non respirare
    dove ha respirato lui. Ho il forte sospetto che l'infezione si diffonda anche
    in modi che non conosciamo ancora, ed\xE8 meglio evitare ogni possibile contatto."
  risposte:
  - "E' successa una cosa tremenda! Oggi mi sono accorto che sono tre giorni che
    uso il sale che mi aveva prestato il mio vicino! Inoltre \xE8 da ieri che mi
    sento stanco e che sento uno strano prurito... Credi che io sia infetto? Ti prego
    dimmi cosa fare. "
  eventiRisposta: []
  indirizzo: drhamm@scpfoundation.org
  oggetto: Prepariamoci per l'invasione
  isMinigameAllegato: 0
  minigameAllegato: -1
  nextMail:
  - {fileID: 11400000, guid: 10be08be1b7ab2e49b4a1078a0580875, type: 2}
  maxSpawns: 1
