%YAML 1.1
%TAG !u! tag:unity3d.com,2011:
--- !u!114 &11400000
MonoBehaviour:
  m_ObjectHideFlags: 0
  m_CorrespondingSourceObject: {fileID: 0}
  m_PrefabInstance: {fileID: 0}
  m_PrefabAsset: {fileID: 0}
  m_GameObject: {fileID: 0}
  m_Enabled: 1
  m_EditorHideFlags: 0
  m_Script: {fileID: 11500000, guid: d082c21ef38dd774c8cb1683997133d9, type: 3}
  m_Name: Schiaffamburger1
  m_EditorClassIdentifier: 
  cod: 98
  messaggio: "Mail promozionale Schiaffamburgher Questa non \xE8 una richiesta, perch\xE8
    noi non abbiamo fame. Per favore, non dubitare che questi hamburger non siano
    salutari, dai un aiuto a te e alla societ\xE0. Vieni da Schiaffamburgher, i migliori
    hamburger del mondo. I prodotti chimici con cui generiamo la nostra carne sono
    sintetizzati al punto che quando dai un morso, ti sembra quasi di ingerire i
    prati e la terra fertilizzata dei parchi della citt\xE0. Vieni da Schiaffamburgher,
    poi ci farai sapere!"
  risposte:
  - Questi sono proprio i migliori hamburger del mondo!
  eventiRisposta: []
  indirizzo: Schiaffamburgher@buonipanini.com
  oggetto: Hamburger molto buoni
  isMinigameAllegato: 0
  minigameAllegato: -1
  nextMail: []
  maxSpawns: 1
