%YAML 1.1
%TAG !u! tag:unity3d.com,2011:
--- !u!114 &11400000
MonoBehaviour:
  m_ObjectHideFlags: 0
  m_CorrespondingSourceObject: {fileID: 0}
  m_PrefabInstance: {fileID: 0}
  m_PrefabAsset: {fileID: 0}
  m_GameObject: {fileID: 0}
  m_Enabled: 1
  m_EditorHideFlags: 0
  m_Script: {fileID: 11500000, guid: d082c21ef38dd774c8cb1683997133d9, type: 3}
  m_Name: WillZeppeli3
  m_EditorClassIdentifier: 
  cod: 26
  messaggio: "La situazione \xE8 diventata periocolosa. Ogni giorno i fagiani mietono
    nuove vittime, e nessuno sembra essersi accorto di nulla! Se non facciamo qualcosa
    al pi\xF9 presto sar\xE0 troppo tardi... Io e i miai amici stiamo facendo il
    possibile, abbiamo recuperato armi e costruito trappole per quei maledetti uccellacci,
    ma il loro numero sembra pi\xF9 grande ogni giorno che passa. Come prcede il
    tuo lavoro? L'unica nostra speranza \xE8 spargere il tuo veleno nell'ambiente,
    in modo che quei maledetti tirino le quoia tutti assieme!"
  risposte:
  - "Non ti preoccupare, le ricerche procedono bene, devo solo trovare il modo per
    estrarre la pura essenza velenosa degli zucchini. Tu e i tui amici cercate di
    guadagnare pi\xF9 tempo possibile, e ce la faremo. Se la situazione dovesse peggiorare,
    usa il potere anti-fagiano dello zucchino, sono sicuro che li spaventer\xE0."
  eventiRisposta: []
  indirizzo: wzeppeli@hamon.org
  oggetto: I FAGIANI CI STANNO ATTACCANDO!
  isMinigameAllegato: 0
  minigameAllegato: -1
  nextMail:
  - {fileID: 11400000, guid: 1918f8565a0e7b1469a8e636b55d1a83, type: 2}
  maxSpawns: 1
