%YAML 1.1
%TAG !u! tag:unity3d.com,2011:
--- !u!114 &11400000
MonoBehaviour:
  m_ObjectHideFlags: 0
  m_CorrespondingSourceObject: {fileID: 0}
  m_PrefabInstance: {fileID: 0}
  m_PrefabAsset: {fileID: 0}
  m_GameObject: {fileID: 0}
  m_Enabled: 1
  m_EditorHideFlags: 0
  m_Script: {fileID: 11500000, guid: d082c21ef38dd774c8cb1683997133d9, type: 3}
  m_Name: WillZeppeli5
  m_EditorClassIdentifier: 
  cod: 28
  messaggio: "Amico mio, ormai per me non c'\xE8 pi\xF9 speranza. I fagiani hanno
    circondato casa mia e credo che presto verranno a prendermi. Nelle ultime due
    ore nessuno degli altri mi ha risposto, e credo che siano gi\xE0 tutti morti.
    Presto sarai l'unico rimasto ad opporti al dominio dei fagiani, ma spero che
    non mollerai. Spero che il nostro sacrificio non sia inutile, e che grazie a
    questo che tu possa salvare il mondo. Sicuramente avranno scovato anche te, e
    credo che ti rimanga poco tempo. Per quanto riguarda me, non lascer\xF2 che quei
    maledetti pennuti mi prendano senza lottare, anzi, sar\xF2 io ad attaccarli per
    primo. E' stato bello lottare al tuo fianco, buona fortuna "
  risposte:
  - "Will, ti prego, fermati! Ci deve essere un'altra soluzione! Il veleno \xE8 ancora
    incompleto ma potremmo inventarci qualcosa! Sono sicuro che possimo vincere! "
  eventiRisposta: []
  indirizzo: wzeppeli@hamon.org
  oggetto: I FAGIANI CI STANNO ATTACCANDO!
  isMinigameAllegato: 0
  minigameAllegato: -1
  nextMail: []
  maxSpawns: 1
