%YAML 1.1
%TAG !u! tag:unity3d.com,2011:
--- !u!114 &11400000
MonoBehaviour:
  m_ObjectHideFlags: 0
  m_CorrespondingSourceObject: {fileID: 0}
  m_PrefabInstance: {fileID: 0}
  m_PrefabAsset: {fileID: 0}
  m_GameObject: {fileID: 0}
  m_Enabled: 1
  m_EditorHideFlags: 0
  m_Script: {fileID: 11500000, guid: d082c21ef38dd774c8cb1683997133d9, type: 3}
  m_Name: WillZeppeli1
  m_EditorClassIdentifier: 
  cod: 24
  messaggio: "Hei, hai sentito cosa \xE8 successo nella tua zona? <link>La TV dice
    che \xE8 una rapina andata male, ma noi sappiamo la verit\xE0! I fagiani hanno
    intenzione di farci fuori uno alla volta ed estinguere la razza umana! Ma io
    sono preparato, sai? Che vengano, i maledetti, li aspetto con la mia doppietta!
    Spero che il sistema operativo che ti ho mandato ti aiuti a passare per uno di
    loro, e che non ti scoprano, ma non posso darti alcuna garanzia. So che stai
    facendo ricerche sulle zucchine, e che il tuo esperimento sul veleno anti-fagiano
    alla zucchina \xE8 molto promettente, ma se vuoi un consiglio da amico, dovresti
    tenere anche tu il fucile l\xEC con te nel seminterrato, di fianco al pc... quei
    dannati potrebbero assalirti in qualunque momento!! Morte ai Fagiani Sempre"
  risposte:
  - "Hai ragione, dovevo capirlo che si trattava di loro! Ormai sono diventati furbi,
    e di questo passo domineranno il mondo! Per me non preoccuparti, ho scorte di
    cibo in scatola per mesi e ho appena recuperato il fucile dal piano di sopra.
    Se uno di quei maledetti uccellacci vuole la mia testa si trover\xE0 una brutta
    sorpresa... Per quanto riguarda le zucchine, le ricerche procedono bene, devo
    solo ordinarne altre online per migliorare la formula, ma sono sicuro che  funzioner\xE0,
    e che presto ci libereremo di loro per sempre."
  eventiRisposta: []
  indirizzo: wzeppeli@hamon.org
  oggetto: I FAGIANI CI STANNO ATTACCANDO!
  isMinigameAllegato: 0
  minigameAllegato: -1
  nextMail:
  - {fileID: 11400000, guid: 41c8cdc07b33e3b49a1972a3179a4508, type: 2}
  maxSpawns: 1
